<?xml version="1.0" encoding="utf-8"?>
<!-- Generator: Adobe Illustrator 18.0.0, SVG Export Plug-In . SVG Version: 6.00 Build 0)  -->
<!DOCTYPE svg PUBLIC "-//W3C//DTD SVG 1.1//EN" "http://www.w3.org/Graphics/SVG/1.1/DTD/svg11.dtd">
<svg version="1.1" id="Layer_1" xmlns="http://www.w3.org/2000/svg" xmlns:xlink="http://www.w3.org/1999/xlink" x="0px" y="0px"
	 width="767.1px" height="750px" viewBox="283.5 0 767.1 750" enable-background="new 283.5 0 767.1 750" xml:space="preserve">
<g id="Lager_3">
	<g>
		<g>
			<g>
				<g>
					<defs>
						<polygon id="SVGID_1_" points="679.4,564.6 837.8,516.3 837.8,251.6 679.4,299.9 						"/>
					</defs>
					<clipPath id="SVGID_2_">
						<use xlink:href="#SVGID_1_"  overflow="visible"/>
					</clipPath>
					<g clip-path="url(#SVGID_2_)">
						<polygon fill="#FFFFFF" points="666.1,279.1 837.8,251.6 668.2,289.8 						"/>
						<path fill="none" d="M667.8,310.5"/>
						<path fill="none" d="M668.1,323.5"/>
						<path fill="none" d="M668.4,336.5"/>
						<path fill="none" d="M668.7,349.5"/>
						<path fill="none" d="M669,362.5"/>
						<path fill="none" d="M669.3,375.6"/>
						<path fill="none" d="M669.6,388.6"/>
						<path fill="none" d="M670,401.6"/>
						<path fill="none" d="M670.3,414.6"/>
						<path fill="none" d="M820.2,381.9"/>
						<path fill="none" d="M670.6,427.7"/>
						<path fill="none" d="M822.9,394.2"/>
						<path fill="none" d="M670.9,440.7"/>
						<path fill="none" d="M825.7,406.5"/>
						<path fill="none" d="M671.2,453.7"/>
						<path fill="none" d="M828.4,418.8"/>
						<path fill="none" d="M671.5,466.7"/>
						<path fill="none" d="M831.1,431.1"/>
						<path fill="none" d="M671.8,479.7"/>
						<path fill="none" d="M833.9,443.4"/>
						<path fill="none" d="M672.1,492.8"/>
						<path fill="none" d="M836.6,455.6"/>
						<path fill="none" d="M672.5,505.8"/>
						<path fill="none" d="M839.3,467.9"/>
						<path fill="none" d="M672.8,518.8"/>
						<path fill="none" d="M842,480.2"/>
						<path fill="none" d="M673.1,531.8"/>
						<path fill="none" d="M844.8,492.5"/>
						<path fill="none" d="M673.4,544.9"/>
						<path fill="none" d="M837.8,507.8"/>
						<path fill="none" d="M673.7,557.9"/>
						<path fill="none" d="M835.4,521.7"/>
						<path fill="none" d="M674,570.9"/>
						<g>
							<g>
								<polygon fill="#FFFFFF" points="670.2,289 810.2,251.8 673.4,299.5 								"/>
							</g>
							<g>
								<polygon fill="#FFFFFF" points="670.4,299.9 812.3,262.1 673.6,310.4 								"/>
							</g>
							<g>
								<polygon fill="#FFFFFF" points="670.7,310.9 814.4,272.5 673.9,321.3 								"/>
							</g>
							<g>
								<polygon fill="#FFFFFF" points="670.9,321.8 816.5,282.9 674.1,332.2 								"/>
							</g>
							<g>
								<polygon fill="#FFFFFF" points="671.2,332.7 818.6,293.2 674.4,343.1 								"/>
							</g>
							<g>
								<polygon fill="#FFFFFF" points="671.4,343.6 820.8,303.6 674.6,354 								"/>
							</g>
							<g>
								<polygon fill="#FFFFFF" points="671.7,354.5 822.9,313.9 674.9,365 								"/>
							</g>
							<g>
								<polygon fill="#FFFFFF" points="672,365.4 825,324.3 675.1,375.9 								"/>
							</g>
							<g>
								<polygon fill="#FFFFFF" points="672.2,376.4 827.1,334.7 675.4,386.8 								"/>
							</g>
							<g>
								<polygon fill="#FFFFFF" points="672.5,387.3 829.2,345 675.7,397.7 								"/>
							</g>
							<g>
								<polygon fill="#FFFFFF" points="672.7,398.2 831.3,355.4 675.9,408.6 								"/>
							</g>
							<g>
								<polygon fill="#FFFFFF" points="673,409.1 833.4,365.8 676.2,419.6 								"/>
							</g>
							<g>
								<polygon fill="#FFFFFF" points="673.2,420 835.5,376.1 676.4,430.5 								"/>
							</g>
							<g>
								<polygon fill="#FFFFFF" points="673.5,431 837.6,386.5 676.7,441.4 								"/>
							</g>
							<g>
								<polygon fill="#FFFFFF" points="673.7,441.9 839.7,396.8 676.9,452.3 								"/>
							</g>
							<g>
								<polygon fill="#FFFFFF" points="674,452.8 841.8,407.2 677.2,463.2 								"/>
							</g>
							<g>
								<polygon fill="#FFFFFF" points="674.3,463.7 843.9,417.6 677.4,474.1 								"/>
							</g>
							<g>
								<polygon fill="#FFFFFF" points="674.5,474.6 846,427.9 677.7,485.1 								"/>
							</g>
							<g>
								<polygon fill="#FFFFFF" points="674.8,485.5 848.1,438.3 678,496 								"/>
							</g>
							<g>
								<polygon fill="#FFFFFF" points="675,496.5 850.2,448.6 678.2,506.9 								"/>
							</g>
							<g>
								<polygon fill="#FFFFFF" points="675.3,507.4 852.4,459 678.5,517.8 								"/>
							</g>
							<g>
								<polygon fill="#FFFFFF" points="675.5,518.3 854.5,469.4 678.7,528.7 								"/>
							</g>
							<g>
								<polygon fill="#FFFFFF" points="675.8,529.2 856.6,479.7 679,539.6 								"/>
							</g>
							<g>
								<polygon fill="#FFFFFF" points="676,540.1 858.7,490.1 679.2,550.6 								"/>
							</g>
							<g>
								<polygon fill="#FFFFFF" points="676.3,551.1 860.8,500.4 679.5,561.5 								"/>
							</g>
							<g>
								<polygon fill="#FFFFFF" points="676.6,562 862.9,510.8 679.7,572.4 								"/>
							</g>
							<g>
								<polygon fill="#FFFFFF" points="676.8,572.9 865,521.2 680,583.3 								"/>
							</g>
							<g>
								<polygon fill="#FFFFFF" points="677.1,583.8 867.1,531.5 680.3,594.2 								"/>
							</g>
						</g>
					</g>
				</g>
			</g>
		</g>
		<g>
			
				<polygon id="SVGID_22_" fill="none" stroke="#FFFFFF" stroke-width="5.4541" stroke-linejoin="round" stroke-miterlimit="10" points="
				679.4,564.6 837.8,516.3 837.8,251.6 679.4,299.9 			"/>
		</g>
	</g>
	<g>
		<g>
			<g>
				<g>
					<defs>
						<polygon id="SVGID_3_" points="837.8,251.6 753.7,226.1 595.3,274.5 679.4,299.9 						"/>
					</defs>
					<clipPath id="SVGID_4_">
						<use xlink:href="#SVGID_3_"  overflow="visible"/>
					</clipPath>
					<g display="none" clip-path="url(#SVGID_4_)">
						<g display="inline">
							<polygon fill="#FFFFFF" points="517.7,251.7 772.2,178.5 520.9,262.1 							"/>
						</g>
						
							<line display="inline" fill="none" stroke="#FFFFFF" stroke-width="10.9082" stroke-miterlimit="10" x1="531.9" y1="258.5" x2="768.7" y2="185"/>
						
							<line display="inline" fill="none" stroke="#FFFFFF" stroke-width="10.9082" stroke-miterlimit="10" x1="544.4" y1="260.1" x2="765.2" y2="191.4"/>
						
							<line display="inline" fill="none" stroke="#FFFFFF" stroke-width="10.9082" stroke-miterlimit="10" x1="556.9" y1="261.7" x2="761.7" y2="197.9"/>
						
							<line display="inline" fill="none" stroke="#FFFFFF" stroke-width="10.9082" stroke-miterlimit="10" x1="569.5" y1="263.3" x2="758.1" y2="204.3"/>
						
							<line display="inline" fill="none" stroke="#FFFFFF" stroke-width="10.9082" stroke-miterlimit="10" x1="582" y1="264.9" x2="754.6" y2="210.7"/>
						
							<line display="inline" fill="none" stroke="#FFFFFF" stroke-width="10.9082" stroke-miterlimit="10" x1="594.5" y1="266.5" x2="751.1" y2="217.2"/>
						
							<line display="inline" fill="none" stroke="#FFFFFF" stroke-width="10.9082" stroke-miterlimit="10" x1="607.1" y1="268.1" x2="747.6" y2="223.6"/>
						<g display="inline">
							<polygon fill="#FFFFFF" points="618,264.5 744.1,230.1 621.3,274.9 							"/>
						</g>
					</g>
				</g>
			</g>
		</g>
		<g>
			<g>
				<g>
					<defs>
						<polygon id="SVGID_5_" points="837.8,251.6 753.7,226.1 595.3,274.5 679.4,299.9 						"/>
					</defs>
					<clipPath id="SVGID_6_">
						<use xlink:href="#SVGID_5_"  overflow="visible"/>
					</clipPath>
					<g display="none" clip-path="url(#SVGID_6_)">
						<g display="inline">
							<polygon fill="#FFFFFF" points="613.2,270.2 836.9,206.6 616.5,280.6 							"/>
						</g>
						
							<line display="inline" fill="none" stroke="#FFFFFF" stroke-width="10.9082" stroke-miterlimit="10" x1="619.4" y1="279.6" x2="826.1" y2="215.4"/>
						
							<line display="inline" fill="none" stroke="#FFFFFF" stroke-width="10.9082" stroke-miterlimit="10" x1="623.9" y1="283.8" x2="815.3" y2="224.3"/>
						
							<line display="inline" fill="none" stroke="#FFFFFF" stroke-width="10.9082" stroke-miterlimit="10" x1="628.4" y1="288" x2="804.5" y2="233.1"/>
						
							<line display="inline" fill="none" stroke="#FFFFFF" stroke-width="10.9082" stroke-miterlimit="10" x1="632.9" y1="292.2" x2="793.7" y2="241.9"/>
						
							<line display="inline" fill="none" stroke="#FFFFFF" stroke-width="10.9082" stroke-miterlimit="10" x1="637.4" y1="296.4" x2="782.9" y2="250.7"/>
						
							<line display="inline" fill="none" stroke="#FFFFFF" stroke-width="10.9082" stroke-miterlimit="10" x1="641.9" y1="300.5" x2="772.2" y2="259.5"/>
						
							<line display="inline" fill="none" stroke="#FFFFFF" stroke-width="10.9082" stroke-miterlimit="10" x1="646.5" y1="304.7" x2="761.4" y2="268.4"/>
						<g display="inline">
							<polygon fill="#FFFFFF" points="649.3,303.7 750.6,277.2 652.6,314.1 							"/>
						</g>
					</g>
				</g>
			</g>
		</g>
		<g>
			
				<polygon id="SVGID_24_" fill="none" stroke="#FFFFFF" stroke-width="5.4541" stroke-linejoin="round" stroke-miterlimit="10" points="
				837.8,251.6 753.7,226.1 595.3,274.5 679.4,299.9 			"/>
		</g>
	</g>
	<g>
		<g>
			<g>
				<g>
					<defs>
						<polygon id="SVGID_7_" points="679.4,564.6 595.3,539.3 595.3,274.5 679.4,299.9 						"/>
					</defs>
					<clipPath id="SVGID_8_">
						<use xlink:href="#SVGID_7_"  overflow="visible"/>
					</clipPath>
					<g clip-path="url(#SVGID_8_)">
						<polygon fill="#FFFFFF" points="582.1,606.1 724.6,568.9 585.3,616.6 						"/>
						<polygon fill="#FFFFFF" points="582.1,597.3 722.4,560.7 585.3,607.7 						"/>
						<polygon fill="#FFFFFF" points="582.1,588.4 720.1,552.5 585.3,598.9 						"/>
						<polygon fill="#FFFFFF" points="582.1,579.6 717.9,544.3 585.3,590 						"/>
						<polygon fill="#FFFFFF" points="582.1,570.7 715.7,536.1 585.3,581.2 						"/>
						<polygon fill="#FFFFFF" points="582.1,561.9 713.5,527.9 585.3,572.3 						"/>
						<polygon fill="#FFFFFF" points="582.1,553 711.3,519.7 585.3,563.5 						"/>
						<polygon fill="#FFFFFF" points="582.1,544.2 709.1,511.5 585.3,554.6 						"/>
						<polygon fill="#FFFFFF" points="582.1,535.3 706.9,503.3 585.3,545.8 						"/>
						<polygon fill="#FFFFFF" points="582.1,526.5 704.7,495.1 585.3,536.9 						"/>
						<polygon fill="#FFFFFF" points="582.1,517.7 702.5,487 585.3,528.1 						"/>
						<polygon fill="#FFFFFF" points="582.1,508.8 700.3,478.8 585.3,519.2 						"/>
						<polygon fill="#FFFFFF" points="582.1,500 698.1,470.6 585.3,510.4 						"/>
						<polygon fill="#FFFFFF" points="582.1,491.1 695.9,462.4 585.3,501.5 						"/>
						<polygon fill="#FFFFFF" points="582.1,482.3 693.7,454.2 585.3,492.7 						"/>
						<polygon fill="#FFFFFF" points="582.1,473.4 691.4,446 585.3,483.9 						"/>
						<polygon fill="#FFFFFF" points="582.1,464.6 689.2,437.8 585.3,475 						"/>
						<polygon fill="#FFFFFF" points="582.1,455.7 687,429.6 585.3,466.2 						"/>
						<polygon fill="#FFFFFF" points="582.1,446.9 684.8,421.4 585.3,457.3 						"/>
						<polygon fill="#FFFFFF" points="582.1,438 682.6,413.2 585.3,448.5 						"/>
						<polygon fill="#FFFFFF" points="582.1,429.2 680.4,405 585.3,439.6 						"/>
						<polygon fill="#FFFFFF" points="582.1,420.3 678.2,396.8 585.3,430.8 						"/>
						<polygon fill="#FFFFFF" points="582.1,411.5 676,388.6 585.3,421.9 						"/>
						<polygon fill="#FFFFFF" points="582.1,402.6 673.8,380.4 585.3,413.1 						"/>
						<polygon fill="#FFFFFF" points="582.1,393.8 671.6,372.2 585.3,404.2 						"/>
						<polygon fill="#FFFFFF" points="582.1,385 669.4,364 585.3,395.4 						"/>
						<polygon fill="#FFFFFF" points="582.1,376.1 667.2,355.8 585.3,386.5 						"/>
						<polygon fill="#FFFFFF" points="582.1,367.3 665,347.7 585.3,377.7 						"/>
						<polygon fill="#FFFFFF" points="582.1,358.4 662.7,339.5 585.3,368.8 						"/>
						<polygon fill="#FFFFFF" points="582.1,349.6 660.5,331.3 585.3,360 						"/>
						<polygon fill="#FFFFFF" points="582.1,340.7 658.3,323.1 585.3,351.1 						"/>
						<polygon fill="#FFFFFF" points="582.1,331.9 656.1,314.9 585.3,342.3 						"/>
						<polygon fill="#FFFFFF" points="582.1,323 653.9,306.7 585.3,333.5 						"/>
						<polygon fill="#FFFFFF" points="582.1,314.2 651.7,298.5 585.3,324.6 						"/>
						<polygon fill="#FFFFFF" points="582.1,305.3 649.5,290.3 585.3,315.8 						"/>
						<polygon fill="#FFFFFF" points="582.1,296.5 647.3,282.1 585.3,306.9 						"/>
						<polygon fill="#FFFFFF" points="582.1,287.6 645.1,273.9 585.3,298.1 						"/>
						<polygon fill="#FFFFFF" points="582.1,278.8 642.9,265.7 585.3,289.2 						"/>
						<polygon fill="#FFFFFF" points="582.1,270 640.7,257.5 585.3,280.4 						"/>
						<polygon fill="#FFFFFF" points="582.1,261.1 638.5,249.3 585.3,271.5 						"/>
						<polygon fill="#FFFFFF" points="582.1,252.3 636.3,241.1 585.3,262.7 						"/>
						<polygon fill="#FFFFFF" points="582.1,243.4 634,232.9 585.3,253.8 						"/>
						<polygon fill="#FFFFFF" points="582.1,234.6 631.8,224.7 585.3,245 						"/>
					</g>
				</g>
			</g>
		</g>
		<g>
			
				<polygon id="SVGID_26_" fill="none" stroke="#FFFFFF" stroke-width="5.4541" stroke-linecap="round" stroke-linejoin="round" stroke-miterlimit="10" points="
				679.4,564.6 595.3,539.3 595.3,274.5 679.4,299.9 			"/>
		</g>
	</g>
	<line fill="none" stroke="#FFFFFF" stroke-width="5.4541" stroke-miterlimit="10" x1="595.3" y1="274.5" x2="679.4" y2="299.9"/>
	<line fill="none" stroke="#FFFFFF" stroke-width="5.4541" stroke-miterlimit="10" x1="753.7" y1="226.1" x2="753.7" y2="277"/>
	<path fill="#FFFFFF" d="M692.6,216.9c-1.5,8.1-6.7,13.6-14.8,12.1s-13.4-9.3-11.9-17.4s10-17.1,18.1-15.6
		C692.1,197.5,694.1,208.9,692.6,216.9z"/>
	<path fill="#FFFFFF" d="M722,253.8c3.6,4.6,2.8,7.3-1.8,10.9s-10,5.3-13.5,0.7c-3.6-4.6-4.4-13.3,0.2-16.9
		C711.5,245,718.5,249.2,722,253.8z"/>
	<g>
		
			<line fill="none" stroke="#FFFFFF" stroke-width="16.3622" stroke-linecap="round" stroke-miterlimit="10" x1="803.4" y1="69.1" x2="837.2" y2="27.3"/>
		
			<linearGradient id="SVGID_9_" gradientUnits="userSpaceOnUse" x1="824.4516" y1="1023.1405" x2="741.9438" y2="921.5116" gradientTransform="matrix(1 0 0 -1 0 1073.28)">
			<stop  offset="0.1589" style="stop-color:#FFFFFF"/>
			<stop  offset="0.4195" style="stop-color:#FFFFFF"/>
			<stop  offset="0.9986" style="stop-color:#787878"/>
		</linearGradient>
		<path fill="url(#SVGID_9_)" d="M704.3,189.2c23.9,0.8,72.8-34.5,109-76.5c7.1-8.2,11.6-15.3,13.7-21.2c2.4-6.6-4.3-12.6-10.8-9.9
			c-11.1,4.6-26.2,2.8-33.1-5.2c-1.4-1.6-3.8-2.1-5.8-1.3c-7.5,2.7-12.4,6.3-19.2,12C729,111.4,676.9,188.2,704.3,189.2z"/>
		<path fill="none" d="M704.3,189.2c23.9,0.8,72.8-34.5,109-76.5c7.1-8.2,11.6-15.3,13.7-21.2c2.4-6.6-4.3-12.6-10.8-9.9
			c-11.1,4.6-26.2,2.8-33.1-5.2c-1.4-1.6-3.8-2.1-5.8-1.3c-7.5,2.7-12.4,6.3-19.2,12C729,111.4,676.9,188.2,704.3,189.2z"/>
		<path fill="#FFFFFF" d="M786.5,135.2c1,10.6-38.7,43.3-62.4,51.7c-32.8,11.6-29.5-7.3-29.5-18c0-38.8,17.5-85,42.2-85
			c13.8,0,22.4,16.4,29.9,31.4C772.5,127.1,785.2,121.9,786.5,135.2z"/>
	</g>
	<g>
		<path fill="#FFFFFF" d="M608.1,680.2c-0.9-1.3-1.4-2.8-1.4-4.5c-0.1-6.3,6.2-14,17.1-18c1.5-15.3,4.1-25.2,7-31.8l-1.8,0.5
			c-12.2,3.6-24.7,2.7-41.8,7.8c-15.9,4.8-23.7,18.9-23.4,29.5c0.2,8.9,5.9,15.4,17.3,12c11.4-3.4,15.3-12.3,15.1-21
			c0-1.4-0.1-2.7-0.3-4.1l7.4-3.5c0.2,1.5,0.4,3,0.4,4.5c0.2,11.2-5.3,22.7-22.5,27.9c-16.7,5-25.1-3.1-25.4-14.4
			c-0.3-13,10.3-30.3,31.5-36.7c17.9-5.4,32.2-3.4,42.6-6.5c1.4-0.4,2.6-0.8,3.6-1.3c2.8-4.5,5.5-6.3,7.3-7.3l3,2.6
			c-1.4,2.6-3.2,4.8-6.3,6.8c-1.6,4.9-3.7,14.2-5.3,32c2.2-0.9,4.1-2.1,5.8-3.2c1.6-4.9,3.3-8.1,3.3-8.1l4.6,0.8
			c-0.4,2.9-1.9,6-4.8,8.9c-0.3,3.7-0.7,9.5-0.6,15.7l-6,1.8c-0.1-4.8,0.8-9.7,1.9-13.9c-1.4,0.8-3,1.6-4.7,2.4
			c-4,35.2-18.4,47.4-31.1,51.2c-13.5,4-19.3-1.4-19.4-8.5c-0.1-6.6,4.7-14.6,12.7-17.1l0.4,6.9c-3.6,1.1-5.9,5.1-5.8,8.8
			c0.1,4.4,3.6,8.3,12.3,5.7s18.6-10.5,22.5-44c-5.4,2.3-9.7,5.7-9.6,10.4c0,1.1,0.3,2.1,0.7,3.3L608.1,680.2z"/>
		<path fill="#FFFFFF" d="M673.9,652.9C673.9,653,673.9,653,673.9,652.9c-3,8.5-7.4,15.3-11.8,20.9l-1.6,10.4
			c-1.2,8.1-4.3,14.7-9.6,16.3c-3.7,1.1-6.4-0.1-6.5-4.1c-0.1-5.3,5.1-11.2,11.1-18.5l0.9-5.4c-1.5,2.5-3.4,4.4-5.6,5.1
			c-4.4,1.3-6-1.9-6.1-7c-0.1-3.1,0.4-7,1.1-10.9c1.9-10.5,3.4-17.1,3.4-17.1l7-2.1c0,0-1.5,6.8-3.4,17.2c-0.8,4.6-1.5,8.4-1.4,11.4
			c0.1,2.2,1,2.3,1.7,2.1c4.1-1.2,7-24.8,8.5-32.4l6.8-2c-0.9,3.7-3.3,18.7-5.5,31.5c3.4-4.7,6.5-9.9,8.6-15.8
			C672.3,652.4,673.9,652.4,673.9,652.9z M650.8,696.5c1.4-0.4,2-2.1,2.5-4.7l1.5-8.7c-3.4,4.4-5.7,8.1-5.7,11.8
			C649.1,696.4,649.9,696.8,650.8,696.5z"/>
		<path fill="#FFFFFF" d="M690.2,647c0.4-0.1,2,0,2,0.4c0,0.1,0,0.1,0,0.1c-4.6,13.7-8.3,20.6-13.7,22.2c-5,1.5-7.1-2.4-7.2-10.4
			c-0.1-5.6,0.7-13.2,2.2-22.4c3.3-20.3,8.3-30.5,13.1-31.9c4.3-1.3,5.6,1.5,5.7,5.4c0.1,4.5-1.4,10.4-2.2,13.1
			c-3.2,11-8.6,20.2-11.8,24.9c-0.3,3.4-0.5,6.5-0.5,8.9c0.1,5.1,1.4,6.3,3.3,5.8C683.8,662.2,686.8,656.5,690.2,647z M687.8,609.7
			c-2.2,0.7-6.8,18.6-8.8,33.6c4-8.2,9.8-22.8,9.7-32.1C688.7,610.1,688.2,609.6,687.8,609.7z"/>
		<path fill="#FFFFFF" d="M708.9,641.4c0.4-0.1,2,0,2,0.4c0,0.1,0,0.1,0,0.1c-4.6,13.7-8.3,20.6-13.7,22.2c-5,1.5-7.1-2.4-7.2-10.4
			c-0.1-5.6,0.7-13.2,2.2-22.4c3.3-20.3,8.3-30.5,13.1-31.9c4.3-1.3,5.6,1.5,5.7,5.4c0.1,4.5-1.4,10.4-2.2,13.1
			c-3.2,11-8.6,20.2-11.8,24.9c-0.3,3.4-0.5,6.5-0.5,8.9c0.1,5.1,1.4,6.3,3.3,5.8C702.5,656.6,705.5,650.9,708.9,641.4z
			 M706.5,604.1c-2.2,0.7-6.8,18.6-8.8,33.6c4-8.2,9.8-22.8,9.7-32.1C707.4,604.5,706.9,604,706.5,604.1z"/>
		<path fill="#FFFFFF" d="M720.1,656.4c0,0,0.6-7.2,2.8-13.6c1.5-9.1,2.7-17.3,3.6-23.4l7.1-2.1l-0.9,6.1c2.4-4.6,5.4-8.2,8.8-9.3
			c3.2-1,4.6,1,4.7,3.9c0,0.5-0.1,1.2-0.1,2c2.8-5.3,6.3-9.1,10.2-10.3c2.9-0.9,4.8,0.3,4.9,4c0.2,7.1-5,17.8-4.9,24.1
			c0.1,2.2,1,2.3,1.7,2.1c2.1-0.6,4.8-5.7,8.2-15.6c0.5-0.1,2.3-0.1,2.3,0.4c-3.5,9.8-7,19.8-13.8,21.8c-2.9,0.9-5.7-0.5-5.8-5.1
			c-0.2-8.3,5-18.3,4.9-23.8c0-0.8-0.4-1.4-1.4-1.1c-2.1,0.6-5.7,5.4-8.3,17.5c-1.1,6.6-2.4,13.3-3.1,16.3l-7.5,2.3
			c1.8-9,5.2-26.5,5.2-29.8c0-1.2-0.5-1.5-1.1-1.3c-2.7,0.8-6,7.8-8,19.4l-2.4,13.6L720.1,656.4z"/>
		<path fill="#FFFFFF" d="M789.8,617.2c0.5-0.1,2.3-0.1,2.3,0.4c-3.9,11.3-7.9,20.4-16,22.9c-7.2,2.2-10.3-3.1-10.5-10.2
			c-0.2-10.4,5.7-24.9,15-27.7c4.1-1.2,6.3,0.9,6.3,4.4c0.1,5.4-4.7,14.2-14.4,18.6c0,0.4,0,0.8,0,1.2c0.1,4.6,1.6,7.8,5.4,6.7
			C782.9,631.8,786.8,625.9,789.8,617.2z M772.8,622.5c6.1-4.7,8.8-10.8,8.7-13.6c0-1.2-0.5-1.8-1.4-1.5
			C776.7,608.4,773.6,615.9,772.8,622.5z"/>
		<path fill="#FFFFFF" d="M812.9,568.1l6.5-2c-0.2,6.6-2.8,23.1-6.1,36.9c-1.4,8.6-1.9,13.6-1.9,16.2c0,1.6,0.3,2.1,0.9,2
			c1.9-0.6,4.3-5.7,6.8-12.8c0.5-0.1,2.3-0.1,2.3,0.4c-4.8,13.7-9.4,20.5-13.2,21.6c-2.7,0.8-4.2-1-4.3-6.2c0-0.2,0-0.5,0-0.8
			c-1.8,5.2-4.6,10.2-9.3,11.6c-4,1.2-5.8-2.5-5.9-8c-0.2-10.8,5.7-28.5,13.6-30.9c3.1-0.9,4.8,0.3,5.5,3.5L812.9,568.1z M795.7,624
			c0,2.4,0.6,3.8,1.7,3.5c3.8-1.1,8.2-15,8.1-22.1c-0.1-2.8-0.9-4.6-2.7-4C799.3,602.4,795.5,617.1,795.7,624z"/>
		<path fill="#FFFFFF" d="M853,599.2C853,599.3,853,599.3,853,599.2c-3,8.5-7.4,15.3-11.8,20.9l-1.6,10.4
			c-1.2,8.1-4.3,14.7-9.6,16.3c-3.7,1.1-6.4-0.1-6.5-4.1c-0.1-5.3,5.1-11.2,11.1-18.5c1.4-8.6,2.8-18.1,3.9-25.9l-2.1,5.9
			c0,0-2.3,0.3-2.3-0.3v-0.1c1.7-4.9,4.6-12.3,6.7-18.7l6.8-2c-0.9,3.7-3.3,18.7-5.5,31.5c3.4-4.7,6.5-9.9,8.6-15.8
			C851.4,598.7,853,598.8,853,599.2z M829.9,642.8c2.5-0.7,3-7.7,4-13.3c-3.3,4.4-5.7,8.1-5.7,11.8
			C828.2,642.7,829.1,643.1,829.9,642.8z M840.9,577.8c-0.1-2.7,2-6.7,5.7-7.8c2.7-0.8,3.9,0.7,4,2.8c0.1,2.7-2,6.6-5.7,7.7
			C842.3,581.4,841,579.9,840.9,577.8z"/>
		<path fill="#FFFFFF" d="M880.1,591.2c-1.8,5.2-5.5,9.5-9.4,12c-2.7,6.4-6.8,11-12.1,12.6c-5.7,1.7-8.3-3-8.5-10
			c-0.1-4.3,0.7-9.4,2.3-14.4l3-0.2c0.8-6.2,4.1-12.3,10-14.1c5.5-1.7,8.6,3.4,8.7,10.2c0.1,3.7-0.8,7.9-1.8,11.6
			c2.1-1.6,4.1-4.1,5.5-8.1C878.3,590.6,880.1,590.7,880.1,591.2z M863.2,605.5c-3.5-0.2-5.8-2.6-7.1-5.9c-0.1,1.2-0.2,2.4-0.2,3.4
			c0.1,4.5,1.5,7.2,3.6,6.6c0.3-0.1,0.4-0.1,0.7-0.3C861.3,608.7,862.3,607.3,863.2,605.5z M859.6,594.1c0.1,4.1,1.5,7.7,5.2,7.6
			c1.7-4.6,2.9-10.3,2.8-14.4c-0.1-3.4-1-5.8-3.4-5.1c-0.2,0.1-0.4,0.2-0.6,0.2C861.3,583.7,859.5,589.3,859.6,594.1z"/>
		<path fill="#FFFFFF" d="M889.6,600.2c1.8-0.5,4.6-5.5,8.1-15.3c0.4-0.1,2.3-0.2,2.3,0.3v0.1c-3.5,9.8-6.1,19.5-12.9,21.6
			c-3.9,1.2-5.4-0.7-5.5-4.1c-0.1-5,3.6-11.5,3.5-15.4c-0.1-2.3-0.8-3.8-1.8-5.2l-3.1,9.1c0,0-2.3,0.3-2.3-0.3v-0.1
			c1.4-4.1,2.4-8.2,3.1-12.2c-0.9-1.4-1.6-3.3-1.6-6c-0.1-2.4,0.4-5.7,1.7-10l6.2-0.2c-0.2,5.1-0.8,9-2,13.4
			c2.8,1.8,6.4,3.8,6.5,8.1c0.1,4.9-3.6,12.4-3.5,15C888.2,600.1,888.7,600.4,889.6,600.2z"/>
		<path fill="#FFFFFF" d="M920.8,535.8l6.5-2c-0.2,6.6-2.8,23.1-6.1,36.9c-1.4,8.6-1.9,13.6-1.9,16.2c0,1.6,0.3,2.1,0.9,2
			c1.9-0.6,4.3-5.7,6.8-12.8c0.5-0.1,2.3-0.1,2.3,0.4c-4.8,13.7-9.4,20.5-13.2,21.6c-2.7,0.8-4.2-1-4.3-6.2c0-0.2,0-0.5,0-0.8
			c-1.8,5.2-4.6,10.2-9.3,11.6c-4,1.2-5.8-2.5-5.9-8c-0.2-10.8,5.7-28.5,13.6-30.9c3.1-0.9,4.8,0.2,5.5,3.5L920.8,535.8z
			 M903.5,591.7c0,2.4,0.6,3.8,1.7,3.5c3.8-1.1,8.2-15,8.1-22.1c-0.1-2.8-0.9-4.6-2.7-4C907.1,570.1,903.4,584.8,903.5,591.7z"/>
	</g>
	<circle fill="#FFFFFF" cx="520.1" cy="394" r="34.6"/>
	<g>
		<path fill="#5F462B" d="M506.6,384.2c0,0,0-0.1,0.2-0.1s0.3,0,0.4-0.1c0-0.1-0.1-0.2-0.1-0.3c0-0.1-0.1-0.2-0.2-0.1
			c0.2-0.2,0.3-0.4,0.3-0.7c0-0.3,0-0.5,0.1-0.8s0.2-0.6,0.5-0.9c0.2-0.3,0.3-0.6,0.2-0.9c0.3-0.3,0.5-0.6,0.7-0.9
			c0.2-0.4,0.4-0.7,0.7-0.9l0.1-0.3l-0.1-0.2c0.4-0.3,0.7-0.6,0.9-0.9c0.2-0.3,0.6-0.7,0.9-1c0.3-0.2,0.5-0.4,0.8-0.6
			s0.5-0.5,0.7-0.9c1.2-0.7,2.6-1,4.2-1.1s3.1,0.2,4.6,0.7c0.1,0,0.3,0,0.3-0.1c0.1-0.1,0.2-0.1,0.3-0.1c0.1,0.1,0.2,0.2,0.3,0.2
			s0.2,0.1,0.2,0.3c0.5,0.1,0.9,0.2,1.3,0.4c0.4,0.2,0.8,0.4,1.2,0.6c0.2,0.1,0.4,0.2,0.7,0.3c0.2,0.1,0.4,0.1,0.6,0.3
			c0.1,0.1,0.2,0.2,0.3,0.4c0.1,0.1,0.2,0.3,0.3,0.5c0.1,0.1,0.2,0.1,0.3,0.1s0.2,0.1,0.3,0.1c0.3,0.2,0.5,0.5,0.7,0.8
			s0.5,0.5,0.8,0.6c0.2,0.3,0.4,0.6,0.6,0.9c0.2,0.3,0.4,0.6,0.7,0.9c0.1,0.6,0.2,1.2,0.4,1.8c0.2,0.5,0.3,1.3,0.2,2.2
			c-0.2,1.8-0.8,3.3-1.7,4.6c-0.9,1.3-1.8,2.5-2.9,3.4c0.3-0.1,0.5-0.1,0.6,0s0.3,0.1,0.5,0.1c0.2,0.2,0.4,0.4,0.6,0.5
			c0.2,0.1,0.5,0.2,0.6,0.4c0.4,0.4,0.8,0.9,1,1.4s0.6,1,1,1.3c0.2,0.5,0.4,1.1,0.6,1.7c0.2,0.6,0.4,1.3,0.5,2s0.2,1.3,0.3,2
			c0,0.7,0,1.3-0.1,1.8c0,0.2,0.1,0.3,0.2,0.3c-0.1,0.1-0.1,0.2-0.2,0.3c0,0.1-0.1,0.2-0.3,0.2c0.1,0.3,0,0.7-0.3,1
			s-0.5,0.7-0.5,1.2c-0.4,0.5-0.7,0.9-1.1,1.3c-0.4,0.4-0.7,0.9-1.1,1.4c-0.1,0.1-0.1,0.1-0.1,0.1s-0.1,0-0.3-0.1
			c0,0.1,0,0.2-0.1,0.3s-0.1,0.2,0,0.2c-0.3,0.1-0.5,0.2-0.8,0.4c-0.2,0.2-0.5,0.4-0.8,0.6c-0.8,0.4-1.7,0.8-2.6,1.1
			c-1,0.3-1.9,0.6-2.6,0.9c-0.1,0-0.1,0-0.2-0.1c-0.1,0-0.2-0.1-0.3-0.1c-0.1,0.1-0.2,0.2-0.5,0.1c-0.2-0.1-0.5,0-0.6,0.1
			c-0.5-0.1-1-0.2-1.5-0.1s-1,0-1.5,0c-0.1,0-0.1,0-0.2-0.1c0,0-0.1-0.1-0.2-0.1c-0.2-0.1-0.3-0.1-0.5-0.1c-0.1,0-0.2,0.1-0.4,0.1
			c-0.6-0.1-1.2-0.3-1.7-0.6s-0.9-0.5-1.4-0.7h-1c-0.1-0.1-0.1-0.2,0-0.3c-0.4-0.1-0.9-0.2-1.3-0.5c-0.4-0.2-0.8-0.5-1.2-0.8
			c-0.4-0.4-0.8-1-1.2-1.8c-0.3-0.8-0.6-1.5-0.9-2.3c-0.4-0.9-0.7-1.7-0.9-2.5c-0.2-0.8-0.3-1.8-0.2-2.8c0.6-0.1,1.3-0.1,2-0.2
			s1.4-0.1,2-0.1c0.6-0.1,1.3-0.1,1.9-0.1s1.1,0.1,1.5,0.4c-0.1,0.2-0.1,0.4-0.1,0.5c0.1,0.1,0,0.2-0.2,0.3c0,0.1,0.1,0.1,0.3,0.1
			c0.1,0,0.3,0,0.3,0.1c0.1,0,0.1-0.2,0.1-0.4c0-0.2,0.1-0.3,0.3-0.3c0,0.3,0.1,0.6,0.1,1c0.1,0.3,0.1,0.7,0.2,1.1s0.2,0.7,0.4,1
			s0.4,0.6,0.7,0.8c0.1,0.1,0.2,0.1,0.3,0.1s0.2,0,0.2,0.1c0.2,0.1,0.3,0.2,0.3,0.3c0,0.1,0.1,0.2,0.3,0.3c0.6,0.1,1.1,0.2,1.7,0.2
			c0.6,0,1.1-0.1,1.6-0.2s0.9-0.4,1.3-0.6c0.4-0.3,0.7-0.6,0.9-1.1c0.1-0.1,0.1-0.2,0.1-0.3c0-0.1,0-0.3,0.1-0.4
			c0.1-0.3,0.2-0.5,0.3-0.7s0.1-0.5,0.1-0.9c-0.1-0.7-0.3-1.4-0.8-2.2c-0.5-0.8-0.9-1.4-1.5-1.8c-0.6-0.5-1.3-0.9-2.3-1
			c-0.9-0.1-1.9-0.3-2.9-0.5c-0.1-0.1-0.1-0.3-0.1-0.5c0-0.3-0.1-0.5-0.3-0.7c0.1-0.3,0.2-0.5,0.1-0.8c-0.1-0.3,0-0.6,0-0.9
			c-0.1-0.1-0.2-0.1-0.3,0s-0.3,0-0.4-0.1c0-0.3,0.1-0.5,0.3-0.6c0.2,0,0.4-0.1,0.5-0.3c-0.1,0-0.3,0-0.4,0.1
			c-0.1,0.1-0.2,0.1-0.4,0c0-0.2,0.1-0.4,0.3-0.4c0.2-0.1,0.4-0.2,0.5-0.3c-0.1-0.2-0.1-0.5-0.1-0.9s0.1-0.8,0.2-1
			c0.2,0,0.3,0,0.4,0.1c0.1,0.1,0.2,0.1,0.4,0.1l-0.2-0.1c0.1-0.1,0.4-0.2,0.9-0.3c0.4-0.1,0.8-0.1,1.1-0.2c0.1,0,0.2,0,0.3,0.1
			c0.1,0,0.3,0,0.4-0.1c0.8-0.2,1.5-0.6,2.1-1.3c0.6-0.7,0.9-1.4,1-2.1s0.1-1.3-0.1-1.9c-0.2-0.6-0.4-1.1-0.7-1.4
			c-0.4-0.5-0.9-0.8-1.4-0.9s-1.1-0.2-1.6-0.1s-1.1,0.3-1.6,0.6c-0.5,0.3-0.9,0.6-1.3,1c-0.3,0.4-0.6,0.8-0.8,1.3s-0.4,1-0.5,1.5
			c-0.4-0.1-0.9-0.1-1.5-0.1c-0.5,0-1.1,0-1.6,0s-1.1,0-1.6,0s-0.9,0-1.3-0.1c-0.2-0.1-0.4-0.2-0.6-0.3c-0.2-0.1-0.4-0.3-0.4-0.5
			h0.4L506.6,384.2L506.6,384.2z M506.9,401.3c0.1,0.2,0.1,0.3,0.1,0.4s0,0.2,0,0.5c0.3,0,0.5,0,0.8-0.1s0.5-0.2,0.8-0.3
			c0.3-0.1,0.5-0.2,0.8-0.3c0.3-0.1,0.5-0.1,0.8-0.1c0-0.1,0.1-0.2,0.2-0.1c0.1,0,0.2,0,0.2-0.1c-0.7-0.1-1.3-0.1-1.9,0.1
			C508.2,401.3,507.5,401.4,506.9,401.3z M507.2,403c0.1,0,0.1,0,0.1,0.1s0,0.2,0.1,0.3c0.7-0.4,1.4-0.7,2.3-1
			c0.8-0.3,1.6-0.5,2.4-0.8c-0.8,0.3-1.6,0.5-2.5,0.6C508.6,402.4,507.8,402.6,507.2,403z M512.9,402c-0.1,0-0.3,0-0.4,0.1
			c-0.2,0.1-0.3,0.1-0.4,0.1c-0.6,0.2-1.2,0.4-1.8,0.6c-0.7,0.2-1.2,0.4-1.8,0.6c-0.1,0.1-0.3,0.2-0.6,0.3s-0.3,0.2-0.2,0.3
			c0.1,0.1,0.2,0.2,0.3,0.1c0.1-0.1,0.1-0.2,0.1-0.3c0.8-0.3,1.6-0.6,2.4-0.9c0.7-0.3,1.7-0.6,2.7-0.8c0.1-0.1,0.1-0.1,0-0.2
			s0-0.1,0.2,0l0.1,0.1v0.1c0.1-0.2,0-0.3-0.1-0.2C513.1,402,513,402,512.9,402z M513.3,403c-0.6,0.1-1.2,0.3-1.7,0.5
			s-1.1,0.4-1.6,0.6c-0.4,0.2-0.8,0.3-1.2,0.4c-0.4,0.1-0.7,0.3-0.9,0.7c0.3,0,0.6-0.1,0.8-0.2c0.2-0.1,0.6-0.2,0.9-0.3
			c0.3-0.1,0.7-0.3,1-0.4s0.6-0.3,0.8-0.5c0.4,0,0.6,0,0.8-0.1c0.1,0,0.3-0.1,0.6-0.2c0.2,0,0.4,0,0.6-0.1c0.2,0,0.3-0.1,0.3-0.3
			c-0.1,0-0.1,0-0.1-0.1C513.5,402.9,513.4,402.9,513.3,403z M517.5,378.6c0.3-0.2,0.6-0.3,0.9-0.4c-0.1,0-0.1-0.1,0.1-0.1
			c0.2-0.1,0.2-0.1,0.2-0.3c-1.8,0.9-3.6,1.9-5.4,2.8c-1.8,0.9-3.6,1.9-5.4,3c0.1,0,0.1,0.1,0.1,0.2s-0.1,0.1-0.1,0.2
			c0.3,0,0.6,0,0.9-0.1c0.3,0,0.6-0.1,0.7-0.2s0.1-0.2,0.2-0.4c0.1-0.2,0.1-0.3,0.2-0.4c0.2,0,0.3-0.1,0.4-0.1s0.1,0-0.1-0.1
			c0.3,0,0.5-0.1,0.6-0.2s0.3-0.2,0.6-0.3c-0.1,0-0.2,0-0.2-0.1c0.1-0.2,0.4-0.3,0.8-0.4c0.4-0.1,0.6-0.2,0.7-0.4
			c0,0.1,0.1,0.2,0.1,0.1c0.1,0,0.2,0,0.2,0c0-0.1-0.1-0.2-0.2-0.2c0.1,0,0.1,0,0.1-0.1l0.1-0.1l-0.1,0.1c0.2,0,0.5-0.1,0.7-0.4
			c0.3-0.3,0.5-0.4,0.8-0.5c-0.1,0-0.1,0-0.1-0.1c0,0,0.1-0.1,0.2-0.1c0.2,0,0.3,0,0.3-0.1c-0.1,0-0.1-0.1-0.1-0.1s0.1-0.1,0.2-0.1
			h0.3c0.1-0.1,0.3-0.3,0.4-0.4c0.1-0.2,0.4-0.2,0.7-0.1c0-0.1,0-0.2,0-0.3c0-0.1,0-0.1,0.1-0.1C517,378.9,517.3,378.8,517.5,378.6z
			 M520.6,375c-0.2,0-0.3,0-0.4,0c-0.1,0-0.2-0.1-0.4-0.2c-0.1,0.2-0.2,0.3-0.4,0.3s-0.3,0.1-0.3,0.2c0.2,0.1,0.3,0,0.3-0.1
			s0.1-0.2,0.2-0.1c0,0.1,0,0.1,0.1,0.1l0.1,0.1c-0.2-0.1-0.3-0.1-0.4,0c-0.1,0.1-0.2,0-0.4-0.1c-1.8,1-3.5,2.1-5.1,3.1
			c-1.7,1-3.5,2-5.4,2.8c0,0.3-0.1,0.5-0.2,0.8c-0.2,0.3-0.2,0.5-0.1,0.7c0.1-0.2,0.4-0.3,0.7-0.5c0.3-0.1,0.5-0.2,0.6-0.3
			c0.1-0.1,0.2-0.2,0.3-0.4c0.1-0.1,0.3-0.2,0.6-0.1c0.4-0.4,0.8-0.8,1.3-1s1-0.5,1.5-0.8c0.2-0.1,0.4-0.3,0.6-0.4
			c0.2-0.2,0.4-0.3,0.6-0.3c0-0.1,0.1-0.2,0.3-0.3c0.2-0.1,0.4-0.1,0.6-0.1c0.1-0.2,0.4-0.4,0.6-0.6c0.3-0.2,0.5-0.3,0.8-0.3
			c0-0.1,0.1-0.3,0.3-0.3c0.2-0.1,0.4-0.1,0.6,0.1c0-0.1,0-0.2-0.1-0.2s-0.1-0.1-0.1-0.1c0.3,0,0.6-0.1,0.8-0.4
			c0.2-0.2,0.4-0.3,0.7-0.3c0.1-0.3,0.3-0.5,0.5-0.6s0.5-0.3,0.8-0.4c-0.1-0.2-0.2-0.3-0.3-0.3s-0.1,0,0-0.1
			c0.1,0.1,0.2,0.1,0.3,0.1C520.4,375.3,520.5,375.2,520.6,375z M511.7,404.8c-0.6,0.1-1.2,0.3-1.8,0.5c-0.6,0.2-1.1,0.4-1.7,0.6
			c0,0.2,0,0.3,0.1,0.3c0,0,0,0-0.1,0.1c0.1,0,0.2,0,0.2-0.1s-0.1-0.1-0.2-0.2c0.3,0,0.4,0,0.4,0s0,0.1-0.2,0.2h0.4
			c-0.1-0.1-0.1-0.3,0.1-0.3c0.1-0.1,0.2-0.1,0.4-0.1c0.1,0,0.3,0,0.4-0.1c0.1,0,0.1-0.1,0.1-0.1c0.2,0.1,0.4,0.1,0.6,0
			s0.2-0.2,0.2-0.3c0.1,0.1,0.2,0.1,0.3,0.1c0.1,0,0.1-0.1-0.1-0.2c0.2,0.1,0.4,0.1,0.6,0C511.4,405,511.6,404.9,511.7,404.8z
			 M508.7,407.1c0.1-0.2,0.3-0.3,0.5-0.4s0.4-0.1,0.7-0.2c0.2-0.1,0.5-0.1,0.7-0.2s0.4-0.2,0.5-0.3c0.2,0.1,0.4,0,0.5-0.1
			s0.3-0.2,0.4-0.1c-0.1,0-0.1,0-0.2,0.1c0,0.1,0,0.1,0.1,0.1s0.2-0.1,0.3-0.2c0.1-0.1,0.2-0.2,0.3-0.2s0.1,0,0.1,0
			c0-0.1,0-0.1,0.1-0.1c0.3-0.2,0.6-0.3,0.9-0.3c0.3,0,0.6-0.1,0.9-0.3c0,0.1,0,0.1-0.1,0.1c0,0-0.1,0-0.1,0.1c0.1,0,0.1,0,0.2-0.1
			c0-0.1,0.1-0.1,0.2-0.2c-0.7,0.1-1.5,0.3-2.4,0.7c-0.8,0.3-1.6,0.7-2.4,1c0,0-0.1,0-0.3,0s-0.3,0.1-0.5,0.2s-0.3,0.2-0.5,0.3
			C508.6,406.9,508.6,407,508.7,407.1z M508.9,407.6c0.1,0.1,0.3,0.1,0.6,0c0.2-0.1,0.5-0.2,0.6-0.3c0.2-0.1,0.6-0.3,1.2-0.5
			s1.1-0.4,1.5-0.6c-0.7,0.1-1.5,0.3-2.2,0.6C510,407.1,509.4,407.4,508.9,407.6z M510.3,407.8c-0.2,0.1-0.4,0.1-0.6,0.1
			s-0.4,0.1-0.6,0.3c0.1,0.2,0.2,0.2,0.4,0.2c0.2-0.1,0.4-0.1,0.5,0.1c0.1-0.1,0.2-0.2,0.1-0.3c-0.1-0.1-0.1-0.2,0-0.2
			c0,0,0.2,0,0.4,0.1l0.3,0.1c-0.1-0.1-0.1-0.1,0.1-0.2c0.1,0,0.2-0.1,0.3-0.1c0-0.1,0-0.1-0.1-0.2c0-0.1,0-0.1,0.1-0.1
			c0.2-0.1,0.3-0.1,0.4-0.1s0.2,0.1,0.4,0.1c0.2-0.3,0.4-0.4,0.6-0.5c0.2-0.1,0.5-0.1,0.7-0.1c-0.1-0.1-0.1-0.2,0.2-0.3
			s0.4-0.1,0.4,0.1c0.1-0.3,0.3-0.4,0.8-0.5c0.4-0.1,0.8-0.2,1.1-0.4c0,0.1,0.1,0.2,0.2,0.2V406v-0.1c-1,0.2-2.1,0.5-3,0.9
			C512.1,407.2,511.2,407.6,510.3,407.8z M516.1,376c-0.9,0.7-1.8,1.4-2.9,1.9c-1.1,0.5-2.1,1-3.2,1.6h-0.3c0,0.2-0.1,0.3-0.2,0.4
			s-0.1,0.2-0.2,0.3c0.4-0.1,0.8-0.3,1-0.4s0.5-0.3,0.9-0.4c0.1-0.1,0.3-0.2,0.5-0.4c0.2-0.1,0.5-0.3,0.7-0.4s0.5-0.2,0.7-0.4
			c0.2-0.1,0.4-0.3,0.5-0.5c0.3,0.1,0.4,0.1,0.5-0.1s0.2-0.3,0.4-0.1c0.1-0.2,0.2-0.3,0.4-0.3s0.3-0.1,0.5-0.3
			c0.2-0.2,0.4-0.3,0.7-0.4s0.5-0.2,0.7-0.4c-0.1-0.1-0.2-0.1-0.2,0C516.4,376.1,516.3,376.1,516.1,376z M510.1,384.1
			c0.4,0.1,0.7,0.1,0.9,0c0.2-0.1,0.4-0.2,0.5-0.4c0.1,0,0.3-0.1,0.5-0.2s0.4-0.3,0.5-0.4c0,0.1,0.1,0.2,0.2,0.1v-0.1c0,0,0,0,0-0.1
			c0,0-0.1,0-0.1-0.1c0.3-0.1,0.6-0.3,0.8-0.6c0.2-0.3,0.6-0.4,1-0.5c-0.1-0.1-0.1-0.1,0-0.2s0.1-0.1,0-0.2
			c-0.7,0.4-1.4,0.9-2.1,1.3C511.5,383.2,510.8,383.6,510.1,384.1z M517.7,406.9l0.1,0.1c-0.5,0.2-1,0.3-1.6,0.5
			c-0.6,0.1-1.2,0.3-1.8,0.5c-0.3,0.2-0.7,0.3-1.1,0.5c-0.4,0.1-0.8,0.2-1.3,0.1c0.3-0.1,0.5-0.2,0.8-0.3c0.3-0.1,0.5-0.2,0.6-0.1
			c-0.1-0.2-0.2-0.2-0.4-0.1c-0.1,0.1-0.3,0.2-0.4,0.3c-0.4,0.2-0.9,0.3-1.3,0.4c-0.5,0.1-0.9,0.2-1.2,0.4c0.2,0.2,0.4,0.4,0.8,0.5
			s0.6,0.3,0.9,0.4c0.3,0.1,0.6,0.1,0.9,0.1s0.5-0.1,0.6-0.3c0.2-0.1,0.3-0.1,0.3-0.1s0.1,0.1,0.2,0.1c0.1-0.2,0.3-0.4,0.6-0.4
			s0.5-0.1,0.7-0.3c-0.2,0-0.4,0-0.5,0.1c-0.2,0.1-0.2,0.1-0.1,0.2c-0.4,0-0.8,0-1.2,0.2s-0.8,0.3-1.2,0.4c-0.1-0.1-0.1-0.1-0.2-0.2
			c0-0.1-0.1-0.2-0.2-0.3c0.2-0.1,0.5-0.2,0.8-0.3c0.4-0.1,0.7-0.1,1-0.1c0.1-0.1,0.1-0.2,0.1-0.3c-0.1-0.1,0-0.1,0.2-0.1
			c0.4,0.1,0.8,0,1.1-0.3c0.3-0.2,0.7-0.3,1.3-0.3c0.1-0.1,0.3-0.3,0.5-0.4s0.4-0.2,0.7-0.2c0.2-0.1,0.5-0.1,0.7-0.2
			s0.4-0.1,0.6-0.3c0-0.1,0.1,0,0.2,0.1s0.1,0.1,0.1-0.1h-0.1c-0.1,0-0.1,0-0.1-0.1c0.4-0.1,0.8-0.2,1-0.3c0.3-0.1,0.5-0.1,0.7-0.1
			c0.1-0.1,0.2-0.2,0.4-0.3c0.2-0.1,0.4-0.1,0.6-0.1c0-0.1,0.1-0.2,0.3-0.3c0.1-0.1,0.3-0.1,0.4-0.1c0.1,0,0.3,0,0.3-0.1
			c0.1,0,0.1-0.1,0-0.2c-0.7,0.3-1.4,0.6-2.3,0.8C519.2,406.5,518.4,406.7,517.7,406.9z M515.1,376c-0.1-0.1,0-0.1,0.3-0.2
			s0.3,0,0.3,0.1c0.2-0.1,0.3-0.2,0.4-0.4c0.1-0.2,0.2-0.3,0.4-0.3l-0.1,0.1c0,0,0,0.1,0.1,0.1c0.1-0.1,0.2-0.3,0.4-0.3
			c0.2-0.1,0.2-0.2,0.2-0.4c-0.6,0-1,0.2-1.4,0.4c-0.4,0.2-0.8,0.4-1.2,0.7c-0.4,0.3-0.7,0.6-1.1,0.8c-0.4,0.3-0.8,0.5-1.3,0.6
			c-0.2,0.3-0.5,0.5-0.9,0.6s-0.6,0.4-0.7,0.8c0.3-0.1,0.6-0.2,0.8-0.3c0.2-0.1,0.5-0.3,0.8-0.5c-0.1,0.1,0,0.1,0.2,0.1
			s0.3-0.1,0.5-0.2c0.1-0.1,0.2-0.1,0.3-0.2s0.2,0,0.2,0.2c0-0.1,0.1-0.1,0.2-0.1c0-0.1,0-0.2-0.1-0.2s-0.1-0.1-0.1-0.1
			c0.2-0.1,0.3-0.1,0.4-0.1c0.1,0,0.2,0,0.2-0.2c0.1,0,0.2,0,0.3-0.1s0.1-0.1-0.1-0.2c0.2-0.1,0.3-0.1,0.3-0.1s0.1,0.1,0.2,0.2
			c-0.1-0.2-0.1-0.3,0.1-0.4C514.8,376.2,514.9,376.1,515.1,376z M512.3,404.8c-0.1-0.1-0.2-0.1-0.3-0.2c-0.1-0.1-0.2,0-0.2,0.2
			c0.1-0.1,0.2-0.1,0.3,0C512.2,404.9,512.2,404.9,512.3,404.8z M512.2,401.3c-0.1,0.1,0,0.1,0.3,0.1s0.4-0.1,0.3-0.2
			c-0.1,0-0.2,0-0.3,0C512.4,401.1,512.3,401.2,512.2,401.3z M512.2,384.1h1.1c0-0.1,0.1-0.3,0.2-0.5c0.1-0.2,0.1-0.4-0.1-0.5
			c-0.1,0.3-0.3,0.4-0.5,0.5C512.6,383.7,512.4,383.9,512.2,384.1z M514.3,375.3c0-0.1,0-0.1,0-0.1s0,0,0.1,0c0-0.1,0.1-0.1,0.1-0.1
			s0.1,0,0.1-0.1c-0.4,0.1-0.8,0.4-1.2,0.6c-0.4,0.3-0.7,0.5-1,0.8c0.4-0.1,0.7-0.3,0.9-0.6C513.6,375.5,513.9,375.3,514.3,375.3z
			 M513.6,408.1c0.2-0.1,0.4-0.1,0.5-0.2c0.2-0.1,0.3-0.2,0.4-0.4c-0.1,0.1-0.2,0.2-0.5,0.2C513.8,407.7,513.6,407.9,513.6,408.1z
			 M528.1,406.9c0.2-0.1,0.5-0.3,0.9-0.5c0.4-0.3,0.7-0.5,1-0.6c-2.5,0.8-5.1,1.6-7.6,2.3c-2.6,0.8-5.1,1.6-7.5,2.4
			c-0.2,0.1-0.4,0.1-0.6,0.1c-0.2,0-0.4,0.1-0.5,0.3c0.3,0,0.6,0.1,0.8,0.2s0.4,0.1,0.7,0.1c0.4-0.3,0.7-0.5,1.1-0.5
			c0.4-0.1,0.7-0.2,1.2-0.4c0.1,0,0.1,0,0.1,0.1s0,0.1,0.1,0.1c0-0.1,0-0.1-0.1-0.1s0-0.1,0.1-0.1c0.2-0.1,0.3-0.1,0.4,0
			c0.1,0.1,0.2,0,0.4-0.2c-0.1-0.1-0.1-0.1,0.1-0.1c0.2,0,0.3,0,0.4,0c0.3-0.1,0.6-0.2,1-0.4c0.4-0.2,0.7-0.2,0.9-0.1
			c0.1-0.1,0.1-0.1,0.2-0.1c0,0,0.1-0.1,0.2-0.1h0.6c0-0.1,0.1-0.2,0.2-0.3c0.3,0.1,0.6,0,1-0.1s0.7-0.3,0.9-0.4
			c0.7-0.1,1.4-0.3,1.9-0.7c0.6-0.3,1.2-0.5,1.9-0.5c-0.1-0.3-0.1-0.3-0.1-0.3C527.8,407,527.9,407,528.1,406.9z M514,409
			c0.1-0.1,0.1-0.1,0.2-0.1c0,0,0.1,0,0.2-0.1c-0.1,0-0.2,0-0.3,0.1C513.9,408.8,513.9,408.9,514,409z M515.2,410
			c-0.3-0.1-0.4-0.1-0.3,0C515,410.1,515.1,410.1,515.2,410z M514.9,407.5c0.2,0,0.3-0.1,0.3-0.1s0,0-0.1,0
			C515.1,407.4,515,407.4,514.9,407.5C514.9,407.4,514.8,407.5,514.9,407.5z M515.5,407.3c0.2,0,0.3,0,0.3-0.1h-0.2L515.5,407.3
			L515.5,407.3z M515.9,409.9h0.2c0-0.1,0-0.2-0.2-0.2S515.7,409.8,515.9,409.9L515.9,409.9L515.9,409.9z M515.8,409.5
			c0.4-0.1,0.9-0.3,1.4-0.4s0.9-0.3,0.9-0.4c0.7-0.1,1.3-0.2,2-0.5s1.2-0.4,1.6-0.5c0.2-0.1,0.4-0.2,0.6-0.2c0.2,0,0.4-0.1,0.7-0.2
			c0.2-0.1,0.4-0.2,0.8-0.3c0.3-0.1,0.7-0.2,1.1-0.2c0.1,0,0.1-0.1,0-0.1s-0.1-0.1,0-0.2c0.5,0,0.9-0.1,1.3-0.3
			c0.4-0.2,0.8-0.4,1.2-0.6c-2,0.6-4,1.2-5.9,1.8C519.4,408,517.5,408.7,515.8,409.5z M516.2,410.8c-0.2,0.1-0.2,0.2-0.2,0.3
			C516.1,411.2,516.1,411.1,516.2,410.8z M516.3,390.4c0-0.2,0.1-0.3,0.3-0.3s0.3-0.1,0.4-0.2c-0.3,0-0.5-0.1-0.6-0.3
			c-0.1-0.2-0.2-0.2-0.3-0.1c0.2,0.1,0.2,0.2,0.2,0.4C516.1,390.1,516.1,390.3,516.3,390.4z M516,411.6c0.3,0,0.5,0,0.8,0
			c0.2,0,0.5,0.1,0.8,0.1c0.9-0.4,1.8-0.7,2.9-0.9c1-0.2,1.9-0.5,2.7-1c0.1,0,0.2,0,0.3,0c0,0,0.1,0,0.3,0c0.5-0.5,1.1-0.8,1.8-1
			s1.4-0.5,1.9-0.9c-1.9,0.6-3.8,1.2-5.8,1.7C519.5,410.1,517.7,410.8,516,411.6z M521.3,389.7c-0.9,0.4-1.7,0.8-2.6,1.2
			c-0.9,0.4-1.7,0.8-2.6,1.1c0.2,0.1,0.3,0.3,0.1,0.5c-0.1,0.2-0.1,0.4,0,0.6c0.2-0.3,0.4-0.5,0.7-0.6s0.6-0.3,0.9-0.5
			c-0.1,0-0.1,0-0.1,0s0-0.1,0.1-0.1c0.2,0,0.4-0.1,0.6-0.2c0.2-0.1,0.4-0.2,0.6-0.2c0-0.1,0.1-0.1,0.3-0.2s0.3-0.2,0.4-0.3h-0.1
			c0.1-0.1,0.1-0.1,0.1,0s0.1,0.1,0.1,0.1c0.1-0.2,0.3-0.3,0.5-0.5c0.2-0.1,0.4-0.2,0.7-0.3c0.2-0.1,0.5-0.2,0.7-0.3
			c0.2-0.1,0.3-0.2,0.4-0.4c0.1,0,0.2,0,0.2,0.1s0.1,0.1,0.3,0c0-0.2,0.1-0.4,0.2-0.4c0.1,0,0.3-0.1,0.4-0.1c-0.1,0-0.1-0.1-0.1-0.1
			c0.1,0,0.1,0,0.2,0c0.1,0,0.1,0,0.2,0c0.1,0,0,0-0.1,0c-0.2,0-0.3,0-0.3-0.1c0.2,0,0.4,0,0.5-0.1c0.1,0,0.1-0.1,0.1-0.1
			c-0.4,0-0.8,0.1-1.3,0.4C522.2,389.2,521.8,389.5,521.3,389.7z M517.1,394c-0.2,0.1-0.4,0.1-0.6,0.2c-0.2,0-0.3,0.2-0.2,0.4
			c0.3-0.1,0.6-0.2,0.8-0.3c0.2-0.1,0.4-0.2,0.6-0.3c0.2-0.1,0.4-0.2,0.6-0.3c0.2-0.1,0.5-0.1,0.8-0.2c-0.1-0.2,0-0.3,0.1-0.3
			s0.3,0,0.5-0.1c0,0-0.1,0-0.1-0.1h-0.1c0,0,0,0,0.1,0c0.1-0.1,0.1-0.1,0.1,0s0.1,0.1,0.1,0c0.1-0.1,0.2-0.2,0.3-0.3
			c0.1-0.1,0.1-0.2,0.2-0.2c0.3-0.1,0.6-0.1,0.8-0.1c0.3,0,0.3,0,0.1-0.2c0.1-0.1,0.3-0.1,0.5-0.1s0.4-0.1,0.5-0.2s0.3-0.2,0.6-0.4
			c0.3-0.2,0.5-0.2,0.7-0.1c0-0.2,0.1-0.3,0.3-0.3s0.3-0.1,0.4-0.3c0.6-0.2,1.2-0.4,1.8-0.8c0.6-0.3,1.2-0.6,1.9-0.8
			c0-0.2,0.1-0.4,0.3-0.5s0.2-0.3,0-0.5c-1.6,1.2-3.5,2.2-5.4,3C520.9,392.1,519,393,517.1,394z M527.8,386c0.2,0,0.2,0,0.1-0.1
			s-0.1-0.1-0.1-0.2c0.2,0.1,0.3,0.1,0.4,0c0.1-0.1,0.1-0.1,0.2-0.2c0.3-0.3,0.6-0.5,1-0.7s0.6-0.5,0.6-0.8
			c-1.4,0.7-2.8,1.4-4.2,2.1s-2.8,1.5-4.2,2.2c-0.6,0.3-1.1,0.5-1.5,0.9c-0.4,0.3-1,0.5-1.6,0.6c-0.3,0.3-0.7,0.5-1.1,0.6
			c-0.4,0.2-0.8,0.4-1.1,0.7c0.4-0.1,0.6-0.1,0.7-0.2c0.1-0.1,0.3-0.1,0.6-0.2c0-0.1,0-0.1,0.1-0.2c0.1,0,0.3-0.1,0.4-0.1
			c0.2-0.1,0.3-0.1,0.5-0.2s0.3-0.2,0.4-0.3c0.1,0.1,0.2,0.1,0.4,0.1s0.3-0.1,0.3-0.2c-0.1-0.1-0.2-0.1-0.3,0s-0.1,0.1-0.1,0
			c0.3-0.1,0.6-0.2,0.8-0.3c0.2-0.1,0.4-0.1,0.5-0.2s0.3-0.2,0.5-0.3c0.2-0.1,0.4-0.2,0.7-0.4c0,0.1,0,0.2-0.1,0.2c0,0,0,0,0.1,0.1
			c0.2-0.2,0.4-0.4,0.8-0.6c0.3-0.2,0.6-0.3,0.9,0c0-0.2,0-0.3,0.1-0.3s0.1-0.1,0.2-0.1c0.1,0,0.2,0,0.2,0c0.1,0,0.1-0.1,0.2-0.2
			c-0.1,0-0.2,0-0.2-0.1c0.2-0.1,0.4-0.1,0.6-0.2c0.2-0.1,0.4-0.2,0.5-0.3c0.1,0,0.2,0.1,0.3,0.2c0-0.1,0-0.1-0.1-0.1l-0.1-0.1
			c0.1,0.1,0.2,0.1,0.4-0.1c0.2-0.1,0.2-0.2,0-0.3c0.3,0.1,0.5,0,0.8-0.1c0.2-0.1,0.4-0.2,0.5-0.3c0.1-0.1,0.3-0.2,0.6-0.2
			s0.2-0.1-0.1-0.2c0.1,0,0.2,0,0.3-0.1C527.7,385.7,527.8,385.8,527.8,386z M525.3,389.2C525.3,389.2,525.3,389.3,525.3,389.2
			c0.1,0.1,0.1,0,0-0.1c0.4,0.1,0.6,0.1,0.7-0.1c-0.1,0-0.1-0.1-0.1-0.2c0.3-0.1,0.5-0.2,0.7-0.3c0.2-0.1,0.4-0.2,0.7-0.2
			c0-0.2,0.1-0.4,0.4-0.5c0.2-0.2,0.5-0.3,0.6-0.4c0.1,0.1,0.2,0.2,0.3,0.3c0.1,0.1,0.2,0.1,0.3,0.1c0.1-0.3,0.2-0.6,0.4-0.9
			c0.1-0.3,0.3-0.6,0.3-1.1c-0.2,0.1-0.4,0.2-0.5,0.2s-0.3,0.1-0.3,0.3c0.2-0.1,0.3,0,0.2,0.1c0,0.1,0,0.2,0.1,0.3
			c-1.8,1-3.6,2-5.5,3s-3.7,2-5.5,3c-0.2,0.1-0.4,0.2-0.6,0.3s-0.4,0.2-0.5,0.4c-0.1-0.1-0.2-0.1-0.4,0.1s-0.3,0.2-0.2,0.3
			c0.2-0.1,0.4-0.1,0.6-0.2c0.2-0.1,0.4-0.2,0.4-0.3c0.3-0.1,0.6-0.2,0.9-0.3c0.3-0.1,0.5-0.3,0.6-0.4c0.2,0.1,0.4,0,0.6-0.1
			c0.2-0.1,0.4-0.3,0.5-0.4c0.3,0,0.5-0.1,0.8-0.2c0.2-0.1,0.4-0.2,0.6-0.3c0.2-0.1,0.3-0.3,0.5-0.4s0.4-0.2,0.6-0.3l-0.1,0.1h-0.1
			c0.1-0.1,0.3-0.1,0.4-0.1c0.2,0,0.2-0.1-0.1-0.1c0.4-0.2,0.8-0.4,1.3-0.7C524.5,389.6,524.9,389.4,525.3,389.2z M516.7,407
			c0,0,0.1,0,0.2,0c0.1,0,0.1,0,0.1-0.1l0,0c0,0-0.1,0-0.1-0.1c0.1,0,0.2,0,0.2-0.1c-0.1,0-0.2,0.1-0.3,0.1
			C516.8,406.8,516.7,406.9,516.7,407z M516.8,390.2c0.2,0.1,0.3,0.1,0.4-0.1c0.1-0.2,0-0.3,0-0.3c-0.1,0.1-0.1,0.1-0.2,0.2
			C516.9,390.1,516.9,390.1,516.8,390.2z M519.3,379c-0.1,0.1-0.1,0.2-0.2,0.3c-0.1,0.1-0.2,0.2-0.4,0.2s-0.3-0.1-0.2-0.2
			c0-0.1-0.1-0.2-0.3-0.1c-0.1,0.2-0.3,0.3-0.6,0.4s-0.4,0.2-0.7,0.4c0.4-0.1,0.7-0.2,1-0.3c0.3-0.1,0.6-0.2,1.1-0.1
			c0.1-0.1,0.3-0.3,0.5-0.4s0.5-0.2,0.8-0.2c0,0,0.1,0,0-0.1c0-0.1,0-0.2,0-0.3c0.2,0,0.4,0,0.5,0c0.1-0.1,0.2-0.1,0.3-0.2
			s0.2-0.2,0.3-0.2c0.1-0.1,0.3-0.1,0.5,0c-0.1-0.2-0.1-0.3,0-0.3s0.2,0,0.2-0.1c0.2-0.1,0.3-0.2,0.4-0.3c0.1-0.1,0.2-0.2,0.5-0.1
			c0-0.1,0-0.2,0.1-0.3c0.1-0.1,0.2-0.1,0.3-0.1s0.2-0.1,0.3-0.1s0.1-0.1,0.1-0.2c-0.9,0.4-1.7,0.8-2.4,1.2
			C520.8,378.2,520,378.6,519.3,379z M517.4,395c0.1-0.1,0.3-0.1,0.4-0.1c0.1,0,0.3,0,0.3-0.2c-0.1-0.1-0.3-0.1-0.4,0
			C517.5,394.8,517.4,394.9,517.4,395z M518,406.5c-0.1-0.1-0.2-0.1-0.2,0C517.9,406.7,517.9,406.7,518,406.5z M519.4,394.1
			c0.1,0.1,0.2,0.1,0.4,0c0.1-0.1,0.3-0.2,0.4-0.3c0.2,0.1,0.3,0.1,0.4-0.1c0.1-0.1,0.2-0.2,0.4-0.2h0.1l0.2-0.1
			c0.1,0,0.2,0,0.2-0.1s0.1-0.1,0.1-0.1c0.2-0.1,0.4-0.1,0.5-0.2s0.1-0.1,0.1-0.1l0.1,0.1c0.1,0,0.1,0,0.1-0.1s0-0.1,0.1-0.1
			c0.1-0.1,0.3-0.1,0.3-0.2c0.1,0,0.2-0.1,0.3-0.2c0,0,0,0.1,0.1,0.1c0,0,0.1,0,0.2-0.1c-0.2,0-0.2-0.1-0.1-0.1c0.1,0,0.2,0,0.2-0.1
			c-0.1-0.2-0.2-0.2-0.4-0.1s-0.3,0.2-0.4,0.3c-0.9,0.3-1.7,0.6-2.4,1s-1.5,0.7-2.2,1.1c0.3-0.1,0.6-0.2,0.8-0.3
			C519,394.3,519.2,394.2,519.4,394.1z M523.3,393.9c0.1-0.1,0.3-0.2,0.5-0.3c0.2-0.1,0.3-0.2,0.4-0.1c0.1-0.1,0.1-0.1,0.1-0.2
			s0-0.1,0.1-0.1s0.1,0,0.2-0.1c0-0.1,0.1-0.1,0.2,0c0.1-0.1,0-0.1-0.3-0.1s-0.4,0-0.4-0.2c-0.1,0.1-0.2,0.2-0.3,0.2
			c-0.2,0-0.3,0.1-0.4,0.2c-0.4,0.1-0.8,0.2-1.2,0.4c-0.4,0.2-0.8,0.4-1.2,0.6s-0.8,0.3-1.3,0.4c-0.4,0.1-0.8,0.3-1.1,0.6
			c1,0.1,1.9-0.1,2.6-0.6c0.2,0,0.4,0,0.5-0.1s0.3-0.2,0.5-0.3c0.2-0.1,0.3-0.2,0.5-0.3c0.1-0.1,0.3-0.1,0.5-0.1
			c-0.2-0.1-0.2-0.2-0.2-0.2C523.1,393.9,523.2,393.9,523.3,393.9z M519.2,411.7c0.9-0.1,1.7-0.2,2.5-0.3c0.8-0.1,1.5-0.4,2-0.8
			c0,0.1,0,0.1-0.1,0.1s0,0,0.1,0.1c0.1-0.2,0.2-0.3,0.4-0.3s0.3-0.1,0.2-0.2c0.1-0.1,0.3-0.1,0.4-0.1c0.1,0,0.1,0,0.1-0.2
			c-0.9,0.3-1.9,0.5-2.8,0.8C521.1,411.2,520.2,411.5,519.2,411.7z M524.9,376.9c-0.1,0.1-0.2,0.3-0.4,0.3c-0.2,0.1-0.4,0.1-0.6,0.2
			c-0.6,0.4-1.3,0.9-2.1,1.3s-1.5,0.8-2.1,1.3c0.3,0,0.6-0.1,0.8-0.2s0.4-0.3,0.7-0.4c0.2-0.2,0.4-0.3,0.7-0.5
			c0.2-0.1,0.5-0.2,0.8-0.2c0.1-0.3,0.2-0.5,0.4-0.5s0.4,0,0.6-0.1c0.1-0.3,0.2-0.4,0.3-0.4s0.4,0,0.7-0.1c0-0.2,0-0.3,0.1-0.4
			s0.2-0.1,0.3-0.1s0.2,0,0.3-0.1c0.1,0,0.2-0.1,0.3-0.2c-0.2-0.1-0.3-0.1-0.4-0.1C525.1,376.9,525,376.9,524.9,376.9z M520.2,396
			c0.1,0.1,0.3,0.1,0.5,0.2s0.4,0,0.6,0c-0.1,0,0,0,0.2,0s0.3,0,0.2,0c0.1,0,0.1,0,0.1-0.1s0-0.1,0.1-0.1c0.1-0.1,0.2-0.1,0.5-0.1
			c0.2,0,0.2-0.1-0.1-0.2c0.3,0.1,0.5,0.1,0.8-0.1s0.5-0.3,0.7-0.4c0.2,0,0.3,0,0.3,0.1c0.3-0.3,0.6-0.5,1.1-0.5
			c0.1-0.2,0.4-0.3,0.8-0.3c0.1-0.3,0.3-0.4,0.6-0.5c0.3,0,0.4-0.2,0.4-0.4c-1.2,0.4-2.3,0.8-3.4,1.3
			C522.4,395.1,521.3,395.5,520.2,396z M522.8,379.4c0.4-0.1,0.7-0.2,1-0.4c0.3-0.2,0.6-0.4,0.9-0.6c0.2-0.1,0.4-0.2,0.6-0.3
			c0.2-0.1,0.4-0.2,0.5-0.4c-0.6,0.2-1.1,0.4-1.7,0.7c-0.6,0.3-1.1,0.6-1.5,0.9c-0.2,0.1-0.4,0.2-0.6,0.2c-0.2,0.1-0.4,0.2-0.5,0.3
			c-0.1,0.1-0.2,0.2-0.3,0.3c-0.2,0.1-0.2,0.2-0.2,0.3c0-0.1,0.1-0.1,0.3-0.1s0.4,0,0.4-0.1s0-0.2,0.1-0.3c0.1-0.1,0.3-0.1,0.4-0.2
			c0.2-0.1,0.3-0.1,0.4-0.2C522.8,379.5,522.9,379.5,522.8,379.4z M521.3,375.8c0.1,0,0.2,0,0.2,0.1s0.1,0.1,0.3,0.1
			c0-0.2,0.1-0.3,0.3-0.3s0.3-0.1,0.3-0.3c-0.1,0-0.2,0-0.2-0.1c0,0,0-0.1-0.1-0.1c0,0.1,0,0.1-0.1,0.1s-0.2,0-0.3,0s-0.2,0-0.3,0.1
			C521.4,375.6,521.3,375.6,521.3,375.8z M522.3,380.6c-0.1,0.1-0.2,0.2-0.4,0.3c-0.2,0.1-0.3,0.2-0.3,0.4c0.1,0.1,0.3,0.1,0.4-0.1
			c0.2-0.2,0.4-0.2,0.6-0.2c0.1-0.2,0.3-0.4,0.5-0.5c0.3-0.1,0.5-0.2,0.7-0.1c0.2-0.3,0.4-0.5,0.8-0.7c0.3-0.2,0.6-0.4,1-0.5
			c0.3-0.2,0.6-0.3,0.9-0.5c0.3-0.2,0.5-0.3,0.6-0.5c-0.7,0.4-1.6,0.8-2.4,1.2C523.9,379.8,523.1,380.2,522.3,380.6z M527.4,394.3
			c-0.2,0.1-0.4,0.2-0.6,0.4c-0.2,0.1-0.4,0.2-0.5,0.1c-0.8,0.4-1.5,0.8-2.4,1s-1.6,0.6-2.3,1c0.1,0.1,0.1,0.2,0.2,0.3
			c0.3-0.1,0.6-0.2,1-0.3c0.3-0.1,0.6-0.3,0.8-0.5c0.3,0,0.4,0,0.6-0.1c0.1-0.1,0.2-0.2,0.3-0.3h0.4c0.3-0.3,0.6-0.5,1-0.6
			s0.8-0.2,1.1-0.3c0.1-0.2,0.2-0.3,0.4-0.5c0.1-0.1,0.4-0.2,0.7-0.2c-0.1-0.1-0.2-0.2-0.3-0.1C527.6,394.2,527.5,394.3,527.4,394.3
			z M522,387.4c0-0.1,0-0.1,0.1-0.1s0.1-0.1,0.1-0.1c-0.1-0.1-0.2-0.1-0.3,0S521.8,387.4,522,387.4z M525.9,380.5L525.9,380.5
			c0.2-0.2,0.2-0.2,0.2-0.1l-0.1,0.1c0.1-0.1,0.3-0.2,0.6-0.3c0.3-0.1,0.3-0.2,0.1-0.3c0.4-0.1,0.6-0.2,0.7-0.3
			c0.1-0.1,0.3-0.3,0.6-0.6c-0.5,0-1,0.1-1.4,0.4s-0.8,0.6-1.2,0.8c-0.6,0.3-1.1,0.6-1.7,0.9c-0.6,0.3-1.1,0.6-1.7,1
			c0,0.1,0,0.2,0.1,0.2s0,0.1,0,0.2c0.2,0,0.3,0,0.4-0.1c0.1-0.1,0.2-0.1,0.3-0.2s0.1-0.1,0.2-0.2s0.2,0,0.4,0
			c0.1-0.2,0.1-0.3,0.2-0.3c0.1,0,0.1-0.1,0.2-0.3c0.3,0,0.5-0.1,0.7-0.3c0.2-0.2,0.5-0.3,1-0.3c-0.1-0.1-0.1-0.2,0-0.3
			C525.8,380.6,525.9,380.5,525.9,380.5z M522.2,387.1c0.2-0.1,0.4-0.1,0.5-0.1s0.2-0.1,0.3-0.5c-0.2,0.1-0.4,0.2-0.5,0.2
			C522.4,386.8,522.3,387,522.2,387.1z M522.2,397.8c0.3,0.2,0.6,0.1,0.9-0.2c0.3-0.3,0.6-0.5,1-0.5c0.1-0.1,0.2-0.2,0.5-0.3
			c0.2-0.1,0.5-0.2,0.8-0.3c0.3-0.1,0.5-0.2,0.7-0.3c0.2-0.1,0.4-0.2,0.5-0.4c0.4-0.3,0.8-0.4,1.2-0.5s0.7-0.2,1-0.5
			c-1.2,0.4-2.3,0.9-3.3,1.3S523.3,397.2,522.2,397.8z M522.6,376.7c-0.1-0.1-0.1-0.1-0.2-0.1c-0.1,0-0.1,0-0.1,0.1
			c0,0,0,0.1,0.1,0.1C522.4,376.8,522.5,376.7,522.6,376.7z M524.1,404c0.3,0.1,0.5,0.1,0.7-0.2c0.2-0.2,0.4-0.2,0.7-0.1
			c-0.1-0.2,0-0.3,0.1-0.2c0.1,0,0.2,0.1,0.2,0.2c0.1-0.1,0.1-0.2,0-0.3c-0.1-0.1-0.1-0.1,0-0.1c0.2,0.1,0.4,0.1,0.5,0
			s0.3-0.1,0.5-0.2c-0.4-0.2-0.8-0.2-1.3,0s-0.9,0.3-1.4,0.5c-0.1,0-0.3,0.1-0.5,0.1s-0.4,0-0.5,0.1c-0.1,0.2-0.2,0.4-0.3,0.4
			c-0.1,0.1-0.2,0.2-0.3,0.4c0.1,0,0.2,0,0.3,0.1s0.1,0,0.2-0.1h-0.2c0.3,0,0.5-0.1,0.6-0.3c0.1-0.2,0.4-0.2,0.6-0.1
			C524,404,524,403.9,524.1,404C524.2,404.3,524.2,404.2,524.1,404z M523.6,385.3c-0.2,0.1-0.4,0.1-0.7,0.2s-0.4,0.2-0.3,0.5
			c0.3-0.1,0.6-0.3,0.8-0.5c0.3-0.2,0.6-0.3,1-0.3c-0.1,0-0.2,0-0.2-0.1c0.4-0.1,0.7-0.3,0.9-0.5s0.5-0.4,0.9-0.5
			c-0.5,0.1-1,0.2-1.4,0.5S524,385.1,523.6,385.3z M522.6,405.6c0.1-0.1,0.3-0.1,0.4-0.1c0.1,0,0.2-0.1,0.3-0.2
			c-0.1,0.1-0.3,0.1-0.4,0.1C522.7,405.3,522.6,405.4,522.6,405.6z M523.6,383.2c0.1,0,0.2,0,0.3-0.1s0.2-0.2,0.4-0.3
			c0.1-0.1,0.3-0.2,0.4-0.3c0.1-0.1,0.3-0.1,0.5-0.1c0-0.1,0.1-0.3,0.3-0.3c0.2-0.1,0.3-0.1,0.5-0.2s0.3-0.1,0.4-0.2
			c0.1-0.1,0.2-0.2,0.2-0.3h0.4c0-0.1,0.1-0.3,0.3-0.3c0.1-0.1,0.3-0.1,0.5-0.2s0.3-0.1,0.5-0.2c0.1-0.1,0.2-0.1,0.1-0.3
			c0.2,0,0.3,0,0.3-0.1s0.1-0.1,0.3-0.1c0-0.2,0-0.3-0.1-0.4s-0.1-0.1-0.2-0.3c-0.9,0.5-1.8,1-2.8,1.5s-1.8,1-2.6,1.6
			c-0.1,0.1-0.2,0.1-0.4,0.2s-0.3,0.2-0.2,0.5c0.1,0.1,0.2,0.1,0.3,0s0.3-0.1,0.5,0C523.6,383.2,523.6,383.2,523.6,383.2
			C523.4,383.3,523.5,383.3,523.6,383.2z M524.5,384.1c0-0.1,0-0.2,0.1-0.2c0.5-0.1,0.9-0.3,1.3-0.6c0.4-0.3,0.8-0.4,1.2-0.6
			c-0.1,0-0.2-0.1-0.2-0.2c0.3,0,0.5-0.1,0.8-0.2c0.2-0.1,0.4-0.2,0.6-0.3c0.2-0.1,0.4-0.2,0.6-0.3c0.2-0.1,0.4,0,0.8,0
			c0-0.2,0-0.3-0.1-0.3s-0.1-0.1-0.1-0.2c-0.4,0.1-0.8,0.2-1.1,0.4c-0.3,0.2-0.6,0.4-0.9,0.5c-0.1,0.1-0.2,0.2-0.4,0.2
			c-0.1,0-0.3,0-0.5,0.1c-0.1,0.1-0.2,0.2-0.3,0.3c-0.1,0.1-0.1,0.2-0.2,0.3c-0.4,0.2-0.8,0.3-1.2,0.5c-0.4,0.1-0.8,0.3-1.1,0.4
			c-0.2,0.2-0.4,0.4-0.7,0.5s-0.4,0.3-0.5,0.5c0.3-0.1,0.6-0.2,0.9-0.5S524.2,384,524.5,384.1z M523.2,386.5h0.5
			c0-0.1,0-0.2-0.1-0.2c0,0.1-0.1,0.2-0.1,0.1C523.3,386.4,523.3,386.5,523.2,386.5z M529.8,396.5c-1.1,0.4-2.2,0.9-3.3,1.2
			c-1.1,0.4-2.2,0.8-3.2,1.3c0.1,0.1,0.1,0.3,0.2,0.4c0,0.1,0.1,0.2,0.2,0.3c1-0.5,2.1-1,3.2-1.5c1.1-0.5,2.2-1,3.3-1.4
			c-0.1,0-0.1-0.1-0.1-0.2C530,396.4,529.9,396.4,529.8,396.5z M530.9,399.5c-1,0.4-2,0.8-3,1.2c-1,0.4-2,0.7-3.1,1
			c-0.1,0.1-0.2,0.2-0.3,0.3c-0.1,0.1-0.3,0.1-0.4,0.1c-0.1,0-0.3,0.1-0.4,0.2c-0.1,0.1-0.2,0.2-0.2,0.3c0.3-0.1,0.6-0.1,0.9-0.2
			c0.3-0.1,0.6-0.2,0.8-0.4c0.1,0.1,0.2,0.1,0.3,0.1c0,0,0.1-0.1,0.2-0.1c0-0.1,0.1-0.1,0.2-0.1c0.1,0,0.1,0.1,0.2,0.1
			c0.1-0.1,0.1-0.1,0.1-0.2c0,0,0.1-0.1,0.1-0.2c0.1-0.1,0.2-0.1,0.3-0.1s0.2,0,0.3-0.1c0.1,0,0.1,0,0.1-0.1s0.1-0.1,0.2-0.2
			c0,0,0.1,0,0.1,0.1c0.1,0.1,0.1,0.1,0.2,0.1c0.1-0.1,0.1-0.1,0.1-0.2c-0.1,0-0.1-0.1,0.1-0.1c0.2,0,0.5-0.1,0.8-0.2
			s0.6-0.3,0.9-0.4c0.3-0.1,0.6-0.2,0.9-0.2c0.3,0,0.5,0.1,0.7,0.4c-0.1,0.1-0.1,0.2-0.1,0.2c0,0.1,0,0.1-0.1,0.2
			c-0.5-0.1-0.9-0.1-1.2,0s-0.6,0.2-0.9,0.4c0.1,0.1,0.2,0.2,0.3,0.2c0.1,0.1,0.1,0.1,0.2,0.2c0.3-0.1,0.6-0.3,1-0.6
			c0.4-0.2,0.7-0.2,1,0.1c-0.1-0.5-0.1-0.9-0.1-1.1s0-0.5,0-0.9h-0.2L530.9,399.5L530.9,399.5z M528.3,398.2
			c-0.6,0.3-1.3,0.5-1.9,0.8c-0.6,0.3-1.3,0.6-1.8,0.8c-0.2,0.1-0.4,0.2-0.6,0.3c-0.2,0.1-0.3,0.2-0.2,0.5c0.4-0.1,0.8-0.2,1.2-0.4
			c0.4-0.1,0.8-0.3,1.2-0.3c0-0.1,0-0.2,0.1-0.3c0.3,0.1,0.5,0.2,0.8,0.1c0.2-0.1,0.5-0.2,0.6-0.3c0,0-0.1,0-0.1-0.1s0-0.1,0.1-0.1
			c0.2,0,0.3-0.1,0.4-0.1c0.1,0,0.2,0,0.3,0.1c0.3-0.4,0.6-0.6,1-0.6c0.1-0.3,0.3-0.4,0.6-0.4s0.5-0.1,0.6-0.3c-0.2-0.1-0.6-0.1-1,0
			C529.1,397.9,528.7,398,528.3,398.2z M527.4,404.8c-0.3,0.1-0.6,0.2-0.9,0.3c-0.3,0.1-0.6,0.2-0.7,0.4c0.6-0.2,1.4-0.5,2.2-0.8
			c0.9-0.4,1.8-0.6,2.9-0.8c0.1-0.2,0.2-0.4,0.3-0.7c0.1-0.2,0.1-0.5,0.1-0.9c-1.3,0.5-2.6,1-3.8,1.5s-2.5,1-3.8,1.4
			c0,0,0.1,0.1,0.3,0.1c0.1,0,0.3,0,0.4,0c0.1,0,0.2,0,0.2-0.1c0,0,0-0.1-0.1-0.1c0.2,0,0.4-0.1,0.5-0.1s0.3-0.1,0.4-0.1
			c0.1-0.1,0.2-0.1,0.4-0.1c0.1,0,0.4,0,0.6,0c0-0.1,0-0.1-0.1-0.2c0-0.1,0-0.1,0.1-0.1c0.2,0,0.3,0,0.4,0c0,0,0.1-0.1,0.2-0.3
			c0.2,0,0.4-0.1,0.8-0.2c0.3-0.1,0.6-0.3,1-0.4s0.7-0.2,1-0.3c0.3-0.1,0.6-0.1,0.8-0.1c0.3,0,0.4,0.1,0.4,0.4
			c-0.5,0.3-1.1,0.5-1.9,0.8C528.4,404.4,527.8,404.6,527.4,404.8z M523.8,400.9c-0.1,0.2-0.1,0.3,0,0.4s0.1,0.2,0.1,0.3
			c0.3,0,0.5-0.1,0.6-0.3c0.1-0.2,0.3-0.2,0.6-0.1c0-0.1,0-0.1-0.1-0.2c0,0,0-0.1,0.1-0.1c0.6-0.2,1.1-0.4,1.6-0.6s1-0.5,1.4-0.8
			c-0.8,0.2-1.5,0.4-2.2,0.8C525.3,400.8,524.6,400.9,523.8,400.9z M523.8,386.3c0.1,0,0.3,0,0.5-0.1c0.2,0,0.2-0.1,0.1-0.3
			c-0.1,0-0.2,0.1-0.3,0.1C524,386.1,523.9,386.2,523.8,386.3z M523.8,392.1c0.1-0.1,0.1-0.1,0.2-0.2c0.1,0,0.2,0,0.4,0.1
			c0.1-0.1,0.3-0.2,0.5-0.3c0.2-0.1,0.4-0.2,0.7-0.3c0.2-0.1,0.4-0.2,0.6-0.3c0.2-0.1,0.2-0.2,0.2-0.3c-0.4,0.2-0.9,0.4-1.4,0.6
			C524.6,391.6,524.2,391.8,523.8,392.1z M523.9,388.4c0.3,0,0.4-0.1,0.3-0.2H524C524,388.3,524,388.4,523.9,388.4z M523.9,390.1
			c0,0,0.1,0,0.2,0c0.1,0,0.1,0,0.1-0.1C524,389.9,523.9,390,523.9,390.1z M525.2,397.2c-0.2,0.1-0.4,0.2-0.6,0.3
			c-0.2,0.1-0.3,0.2-0.4,0.4c0.7-0.3,1.5-0.6,2.4-0.9s1.8-0.7,2.5-1.1c-0.7,0.1-1.5,0.3-2.1,0.6
			C526.3,396.7,525.7,396.9,525.2,397.2z M524.2,405.9h0.2v-0.2h-0.2V405.9z M524.8,388.2c-0.1-0.2-0.2-0.2-0.4,0.1
			C524.7,388.3,524.8,388.2,524.8,388.2z M524.4,388.3v0.2h0.2v-0.2H524.4z M524.5,385.9c0.3,0,0.4-0.1,0.4-0.2
			C524.7,385.7,524.5,385.8,524.5,385.9z M525,388.2c0-0.1,0.1-0.2,0.1-0.2c0.1,0,0.1,0,0.2,0c0.1,0,0.1,0,0.2,0
			c0.1,0,0.1-0.1,0.1-0.3c-0.1,0.1-0.3,0.1-0.5,0.1C524.9,387.9,524.9,388,525,388.2z M524.9,385.6c0,0.1,0.1,0.1,0.2,0
			c0.1-0.1,0.2-0.1,0.3-0.2s0.2-0.1,0.3-0.2s0.1-0.1,0,0c-0.2,0.1-0.3,0.1-0.4,0.2C525.2,385.4,525.1,385.5,524.9,385.6z M525,410.2
			h0.2c0.1-0.1,0-0.2-0.1-0.2s-0.2,0-0.2,0.1C525,410.1,525,410.1,525,410.2z M525,402.9c0.1-0.1,0.2-0.1,0.3-0.1s0.2,0,0.3-0.1
			c-0.2,0-0.4,0-0.5,0.1C525,402.8,524.9,402.8,525,402.9z M525.7,393c-0.3-0.1-0.4-0.1-0.3,0.1C525.4,393.1,525.5,393.1,525.7,393z
			 M525.8,407.6c-0.2,0.1-0.2,0.2,0,0.2C526,407.8,526,407.7,525.8,407.6z M525.9,385.1c0.4-0.1,0.8-0.2,1-0.3c-0.2,0-0.2,0-0.2-0.1
			c0.1,0,0.1,0,0.1-0.1c0,0,0-0.1-0.1-0.1c-0.1,0.1-0.2,0.1-0.3,0.2C526.2,384.9,526.1,385,525.9,385.1z M526.3,409.7
			c-0.2-0.1-0.3-0.1-0.3,0C526,409.9,526.1,409.9,526.3,409.7z M526.6,383.8c0.1-0.3,0.3-0.3,0.5-0.1c0-0.1,0-0.2-0.1-0.2
			s-0.1,0-0.2,0c-0.1,0-0.1,0.1-0.2,0.1C526.5,383.7,526.5,383.8,526.6,383.8z M527,403.1c0.2-0.2,0.4-0.2,0.5-0.1s0.2,0,0.2-0.2
			C527.3,402.8,527.1,402.9,527,403.1z M527.1,383.4c0.1,0,0.2,0,0.4-0.1c0.1-0.1,0.1-0.1,0.1-0.2c0,0.1-0.1,0.2-0.2,0.2
			C527.1,383.3,527.1,383.3,527.1,383.4z M527.7,384.2c-0.1,0-0.1,0-0.1-0.1s0-0.1-0.1-0.1c0,0.2,0,0.2-0.2,0.2s-0.2,0.1-0.1,0.3
			C527.2,384.3,527.3,384.2,527.7,384.2c-0.1,0.1-0.1,0.1,0,0.1C527.7,384.3,527.7,384.3,527.7,384.2z M527.4,402.2
			c-0.1-0.1,0-0.1,0.2,0s0.3,0,0.2-0.1c-0.1,0-0.2,0-0.4,0S527.2,402.1,527.4,402.2z M527.5,408c0.3,0,0.5-0.1,0.6-0.2
			C527.8,407.7,527.6,407.8,527.5,408z M528,383.9l0.2,0.1C528.1,384,528,384,528,383.9C527.9,384,527.9,383.9,528,383.9z
			 M528.2,407.7c0.3,0,0.6-0.1,0.8-0.4c-0.1,0-0.3,0.1-0.5,0.1C528.4,407.5,528.3,407.6,528.2,407.7z M529.9,404.8
			c0,0.3,0.1,0.4,0.4,0.4c-0.1-0.1,0-0.2,0.1-0.3c0.1,0,0.2-0.1,0.2-0.2c-0.1,0-0.3,0-0.3,0.1C530.2,404.8,530.1,404.8,529.9,404.8z
			"/>
	</g>
</g>
</svg>
