<?xml version="1.0" encoding="utf-8"?>
<!-- Generator: Adobe Illustrator 18.0.0, SVG Export Plug-In . SVG Version: 6.00 Build 0)  -->
<!DOCTYPE svg PUBLIC "-//W3C//DTD SVG 1.1//EN" "http://www.w3.org/Graphics/SVG/1.1/DTD/svg11.dtd">
<svg version="1.1" id="Lager_1" xmlns="http://www.w3.org/2000/svg" xmlns:xlink="http://www.w3.org/1999/xlink" x="0px" y="0px"
	 width="40.9px" height="40.9px" viewBox="22.4 280.5 40.9 40.9" enable-background="new 22.4 280.5 40.9 40.9"
	 xml:space="preserve">
<g id="Lager_2">
	<g>
		<g>
			<path fill="#FFFFFF" d="M42.8,284.2c5.5,0,6.1,0,8.3,0.1c2,0.1,3.1,0.4,3.8,0.7c1,0.4,1.6,0.8,2.4,1.5s1.1,1.4,1.5,2.4
				c0.3,0.7,0.6,1.8,0.7,3.8c0.1,2.1,0.1,2.8,0.1,8.3s0,6.1-0.1,8.3c-0.1,2-0.4,3.1-0.7,3.8c-0.4,1-0.8,1.6-1.5,2.4
				s-1.4,1.1-2.4,1.5c-0.7,0.3-1.8,0.6-3.8,0.7c-2.1,0.1-2.8,0.1-8.3,0.1s-6.1,0-8.3-0.1c-2-0.1-3.1-0.4-3.8-0.7
				c-1-0.4-1.6-0.8-2.4-1.5c-0.7-0.7-1.1-1.4-1.5-2.4c-0.3-0.7-0.6-1.8-0.7-3.8c-0.1-2.1-0.1-2.8-0.1-8.3s0-6.1,0.1-8.3
				c0.1-2,0.4-3.1,0.7-3.8c0.4-1,0.8-1.6,1.5-2.4s1.4-1.1,2.4-1.5c0.7-0.3,1.8-0.6,3.8-0.7C36.7,284.2,37.4,284.2,42.8,284.2
				 M42.8,280.5c-5.5,0-6.2,0-8.4,0.1c-2.2,0.1-3.7,0.5-5,1c-1.4,0.5-2.5,1.2-3.6,2.4c-1.1,1.1-1.8,2.3-2.4,3.6
				c-0.5,1.3-0.9,2.8-1,5c-0.1,2.2-0.1,2.9-0.1,8.4s0,6.2,0.1,8.4s0.5,3.7,1,5c0.5,1.4,1.2,2.5,2.4,3.6c1.1,1.1,2.3,1.8,3.6,2.4
				c1.3,0.5,2.8,0.9,5,1c2.2,0.1,2.9,0.1,8.4,0.1s6.2,0,8.4-0.1c2.2-0.1,3.7-0.5,5-1c1.4-0.5,2.5-1.2,3.6-2.4s1.8-2.3,2.4-3.6
				c0.5-1.3,0.9-2.8,1-5c0.1-2.2,0.1-2.9,0.1-8.4s0-6.2-0.1-8.4s-0.5-3.7-1-5c-0.5-1.4-1.2-2.5-2.4-3.6c-1.1-1.1-2.3-1.8-3.6-2.4
				c-1.3-0.5-2.8-0.9-5-1C49,280.5,48.4,280.5,42.8,280.5"/>
			<path fill="#FFFFFF" d="M42.8,290.5c-5.8,0-10.5,4.7-10.5,10.5c0,5.8,4.7,10.5,10.5,10.5c5.8,0,10.5-4.7,10.5-10.5
				C53.3,295.2,48.6,290.5,42.8,290.5 M42.8,307.8c-3.8,0-6.8-3-6.8-6.8c0-3.8,3-6.8,6.8-6.8s6.8,3,6.8,6.8
				C49.6,304.7,46.5,307.8,42.8,307.8"/>
			<path fill="#FFFFFF" d="M56.2,290.1c0,1.4-1.1,2.5-2.5,2.5s-2.5-1.1-2.5-2.5s1.1-2.5,2.5-2.5S56.2,288.7,56.2,290.1"/>
		</g>
	</g>
</g>
</svg>
