<?xml version="1.0" encoding="utf-8"?>
<!-- Generator: Adobe Illustrator 18.0.0, SVG Export Plug-In . SVG Version: 6.00 Build 0)  -->
<!DOCTYPE svg PUBLIC "-//W3C//DTD SVG 1.1//EN" "http://www.w3.org/Graphics/SVG/1.1/DTD/svg11.dtd">
<svg version="1.1" id="Lager_1" xmlns="http://www.w3.org/2000/svg" xmlns:xlink="http://www.w3.org/1999/xlink" x="0px" y="0px"
	 width="184.3px" height="311.8px" viewBox="0 0 184.3 311.8" enable-background="new 0 0 184.3 311.8" xml:space="preserve">
<g id="Lager_2">
	<g>
		<g>
			<g>
				
					<linearGradient id="SVGID_1_" gradientUnits="userSpaceOnUse" x1="546.816" y1="30.3483" x2="623.5899" y2="-121.2055" gradientTransform="matrix(0.2869 0 0 0.2869 -70.5969 89.498)">
					<stop  offset="0.1589" style="stop-color:#FFFFFF"/>
					<stop  offset="0.4118" style="stop-color:#787878"/>
					<stop  offset="0.4195" style="stop-color:#FFFFFF"/>
				</linearGradient>
				<path fill="url(#SVGID_1_)" d="M111.1,72.9c0-3.8-3.1-6.3-6.9-5.7c-3.8,0.7-6.9,4.3-6.9,8.1c0,1.9,0.8,3.5,2.1,4.5l-26.3,19
					c1.3,2.1,4.4,2.4,7,0.5l22.8-16.5l4.7-3.3l0,0C109.7,78,111.1,75.5,111.1,72.9z M104.2,70.8c1.8-0.3,3.2,0.9,3.2,2.7
					s-1.5,3.5-3.2,3.8c-1.8,0.3-3.2-0.9-3.2-2.7C101,72.9,102.5,71.1,104.2,70.8z"/>
			</g>
			<g>
				<path fill="none" d="M104.2,88.1c-1.8,0.3-3.2,2-3.2,3.8s1.5,3,3.2,2.7c1.8-0.3,3.2-2,3.2-3.8C107.5,89,106.1,87.8,104.2,88.1z"
					/>
				<path fill="#FFFFFF" d="M107.5,84.8L107.5,84.8l-4.6-1.7l-22.8-8.4c-2.6-0.9-5.7,0.4-7,3l26.3,9.6c-1.3,1.5-2,3.3-2,5.2
					c0,3.8,3.1,6.3,6.9,5.7c3.8-0.7,6.9-4.3,6.9-8.1C111.1,87.6,109.7,85.6,107.5,84.8z M104.2,94.7c-1.8,0.3-3.2-0.9-3.2-2.7
					s1.5-3.5,3.2-3.8c1.8-0.3,3.2,0.9,3.2,2.7C107.5,92.6,106.1,94.3,104.2,94.7z"/>
			</g>
		</g>
	</g>
	<g>
		<line fill="none" stroke="#FFFFFF" stroke-width="5.4541" stroke-miterlimit="10" x1="79.4" y1="121.5" x2="80.9" y2="121"/>
		
			<line fill="none" stroke="#FFFFFF" stroke-width="5.4541" stroke-miterlimit="10" stroke-dasharray="11.5611,11.5611" x1="84.1" y1="120" x2="120.3" y2="108.2"/>
		<line fill="none" stroke="#FFFFFF" stroke-width="5.4541" stroke-miterlimit="10" x1="121.9" y1="107.7" x2="123.4" y2="107.2"/>
	</g>
	<g>
		<g>
			<g>
				<g>
					<defs>
						<polygon id="SVGID_2_" points="88.3,204.8 133.7,190.9 131.5,125.6 85.8,139.4 						"/>
					</defs>
					<clipPath id="SVGID_3_">
						<use xlink:href="#SVGID_2_"  overflow="visible"/>
					</clipPath>
					<g clip-path="url(#SVGID_3_)">
						<polygon fill="#FFFFFF" points="84.7,128.5 131.5,125.6 84.9,131.6 						"/>
						<path fill="none" d="M85,137.5"/>
						<path fill="none" d="M85.1,141.2"/>
						<path fill="none" d="M85.1,144.9"/>
						<path fill="none" d="M85.2,148.7"/>
						<path fill="none" d="M85.3,152.4"/>
						<path fill="none" d="M85.4,156.2"/>
						<path fill="none" d="M85.5,159.9"/>
						<path fill="none" d="M85.6,163.6"/>
						<path fill="none" d="M85.7,167.4"/>
						<path fill="none" d="M128.7,158"/>
						<path fill="none" d="M85.8,171.1"/>
						<path fill="none" d="M129.5,161.5"/>
						<path fill="none" d="M85.9,174.8"/>
						<path fill="none" d="M130.3,165"/>
						<path fill="none" d="M85.9,178.6"/>
						<path fill="none" d="M131,168.6"/>
						<path fill="none" d="M86,182.3"/>
						<path fill="none" d="M131.8,172.1"/>
						<path fill="none" d="M86.1,186.1"/>
						<path fill="none" d="M132.6,175.6"/>
						<path fill="none" d="M86.2,189.8"/>
						<path fill="none" d="M133.4,179.1"/>
						<path fill="none" d="M86.3,193.5"/>
						<path fill="none" d="M134.2,182.7"/>
						<path fill="none" d="M86.4,197.2"/>
						<path fill="none" d="M134.9,186.2"/>
						<path fill="none" d="M86.5,201"/>
						<path fill="none" d="M135.7,189.7"/>
						<path fill="none" d="M86.6,204.7"/>
						<path fill="none" d="M133.7,194.1"/>
						<path fill="none" d="M86.7,208.5"/>
						<path fill="none" d="M133,198.1"/>
						<path fill="none" d="M86.7,212.2"/>
						<g>
							<polygon fill="#FFFFFF" points="85.7,131.3 125.8,120.7 86.6,134.3 							"/>
							<polygon fill="#FFFFFF" points="85.7,134.5 126.4,123.6 86.6,137.5 							"/>
							<polygon fill="#FFFFFF" points="85.8,137.6 127,126.6 86.7,140.6 							"/>
							<polygon fill="#FFFFFF" points="85.9,140.7 127.6,129.6 86.8,143.7 							"/>
							<polygon fill="#FFFFFF" points="85.9,143.9 128.2,132.5 86.9,146.8 							"/>
							<polygon fill="#FFFFFF" points="86,147 128.9,135.5 86.9,150 							"/>
							<polygon fill="#FFFFFF" points="86.1,150.1 129.5,138.5 87,153.1 							"/>
							<polygon fill="#FFFFFF" points="86.2,153.3 130.1,141.4 87.1,156.3 							"/>
							<polygon fill="#FFFFFF" points="86.2,156.4 130.7,144.4 87.1,159.4 							"/>
							<polygon fill="#FFFFFF" points="86.3,159.5 131.3,147.4 87.2,162.5 							"/>
							<polygon fill="#FFFFFF" points="86.4,162.6 131.9,150.4 87.3,165.6 							"/>
							<polygon fill="#FFFFFF" points="86.5,165.8 132.5,153.4 87.4,168.8 							"/>
							<polygon fill="#FFFFFF" points="86.5,168.9 133.1,156.3 87.4,171.9 							"/>
							<polygon fill="#FFFFFF" points="86.6,172.1 133.7,159.3 87.5,175 							"/>
							<polygon fill="#FFFFFF" points="86.7,175.2 134.3,162.2 87.6,178.2 							"/>
							<polygon fill="#FFFFFF" points="86.7,178.3 134.9,165.2 87.7,181.3 							"/>
							<polygon fill="#FFFFFF" points="86.8,181.4 135.5,168.2 87.7,184.5 							"/>
							<polygon fill="#FFFFFF" points="86.9,184.6 136.1,171.2 87.8,187.6 							"/>
							<polygon fill="#FFFFFF" points="87,187.7 136.7,174.2 87.9,190.7 							"/>
							<polygon fill="#FFFFFF" points="87,190.8 137.3,177.1 88,193.8 							"/>
							<polygon fill="#FFFFFF" points="87.1,194 137.9,180.1 88,197 							"/>
							<polygon fill="#FFFFFF" points="87.2,197.1 138.5,183.1 88.1,200.1 							"/>
							<polygon fill="#FFFFFF" points="87.3,200.2 139.1,186 88.2,203.2 							"/>
							<polygon fill="#FFFFFF" points="87.3,203.4 139.7,189 88.2,206.4 							"/>
							<polygon fill="#FFFFFF" points="87.4,206.5 140.3,192 88.3,209.5 							"/>
							<polygon fill="#FFFFFF" points="87.5,209.6 140.9,194.9 88.4,212.6 							"/>
							<polygon fill="#FFFFFF" points="87.6,212.8 141.5,197.9 88.5,215.7 							"/>
							<polygon fill="#FFFFFF" points="87.6,215.9 142.1,200.9 88.6,218.9 							"/>
						</g>
					</g>
				</g>
			</g>
			<g>
				
					<polygon id="SVGID_16_" fill="none" stroke="#FFFFFF" stroke-width="5.4541" stroke-linejoin="round" stroke-miterlimit="10" points="
					88.3,204.8 133.7,190.9 131.5,125.6 85.8,139.4 				"/>
			</g>
		</g>
		<g>
			<g>
				<g>
					<defs>
						<polyline id="SVGID_4_" points="85.8,139.4 131.5,125.6 120.1,99.7 76.2,114 66.2,133.1 						"/>
					</defs>
					<clipPath id="SVGID_5_">
						<use xlink:href="#SVGID_4_"  overflow="visible"/>
					</clipPath>
					<g display="none" clip-path="url(#SVGID_5_)">
						<g display="inline">
							<polygon fill="#FFFFFF" points="41.9,120.6 114.9,99.6 42.8,123.6 							"/>
						</g>
						
							<line display="inline" fill="none" stroke="#FFFFFF" stroke-width="10.9082" stroke-miterlimit="10" x1="46" y1="122.6" x2="113.9" y2="101.5"/>
						
							<line display="inline" fill="none" stroke="#FFFFFF" stroke-width="10.9082" stroke-miterlimit="10" x1="49.6" y1="123" x2="112.9" y2="103.3"/>
						
							<line display="inline" fill="none" stroke="#FFFFFF" stroke-width="10.9082" stroke-miterlimit="10" x1="53.2" y1="123.5" x2="111.9" y2="105.2"/>
						
							<line display="inline" fill="none" stroke="#FFFFFF" stroke-width="10.9082" stroke-miterlimit="10" x1="56.8" y1="123.9" x2="110.9" y2="107"/>
						
							<line display="inline" fill="none" stroke="#FFFFFF" stroke-width="10.9082" stroke-miterlimit="10" x1="60.4" y1="124.4" x2="109.9" y2="108.9"/>
						
							<line display="inline" fill="none" stroke="#FFFFFF" stroke-width="10.9082" stroke-miterlimit="10" x1="63.9" y1="124.9" x2="108.9" y2="110.7"/>
						
							<line display="inline" fill="none" stroke="#FFFFFF" stroke-width="10.9082" stroke-miterlimit="10" x1="67.6" y1="125.3" x2="107.9" y2="112.6"/>
						<g display="inline">
							<polygon fill="#FFFFFF" points="70.7,124.3 106.9,114.4 71.6,127.3 							"/>
						</g>
					</g>
				</g>
			</g>
			<g>
				<g>
					<defs>
						<polyline id="SVGID_6_" points="85.8,139.4 131.5,125.6 120.1,99.7 76.2,114 66.2,133.1 						"/>
					</defs>
					<clipPath id="SVGID_7_">
						<use xlink:href="#SVGID_6_"  overflow="visible"/>
					</clipPath>
					<g display="none" clip-path="url(#SVGID_7_)">
						<g display="inline">
							<polygon fill="#FFFFFF" points="69.3,125.9 133.5,107.7 70.3,128.9 							"/>
						</g>
						
							<line display="inline" fill="none" stroke="#FFFFFF" stroke-width="10.9082" stroke-miterlimit="10" x1="71.1" y1="128.6" x2="130.4" y2="110.2"/>
						
							<line display="inline" fill="none" stroke="#FFFFFF" stroke-width="10.9082" stroke-miterlimit="10" x1="72.4" y1="129.8" x2="127.3" y2="112.8"/>
						
							<line display="inline" fill="none" stroke="#FFFFFF" stroke-width="10.9082" stroke-miterlimit="10" x1="73.7" y1="131" x2="124.2" y2="115.3"/>
						
							<line display="inline" fill="none" stroke="#FFFFFF" stroke-width="10.9082" stroke-miterlimit="10" x1="75" y1="132.2" x2="121.1" y2="117.8"/>
						
							<line display="inline" fill="none" stroke="#FFFFFF" stroke-width="10.9082" stroke-miterlimit="10" x1="76.2" y1="133.4" x2="118" y2="120.3"/>
						
							<line display="inline" fill="none" stroke="#FFFFFF" stroke-width="10.9082" stroke-miterlimit="10" x1="77.5" y1="134.7" x2="114.9" y2="122.9"/>
						
							<line display="inline" fill="none" stroke="#FFFFFF" stroke-width="10.9082" stroke-miterlimit="10" x1="78.9" y1="135.8" x2="111.8" y2="125.4"/>
						<g display="inline">
							<polygon fill="#FFFFFF" points="79.7,135.5 108.7,127.9 80.6,138.5 							"/>
						</g>
					</g>
				</g>
			</g>
			<g>
				
					<polyline id="SVGID_18_" fill="none" stroke="#FFFFFF" stroke-width="5.4541" stroke-linejoin="round" stroke-miterlimit="10" points="
					85.8,139.4 131.5,125.6 120.1,99.7 76.2,114 66.2,133.1 				"/>
			</g>
		</g>
		<g>
			<g>
				<g>
					<defs>
						<polygon id="SVGID_8_" points="88.3,204.8 64.2,197.5 66.2,133.1 76.2,114 85.8,139.4 						"/>
					</defs>
					<clipPath id="SVGID_9_">
						<use xlink:href="#SVGID_8_"  overflow="visible"/>
					</clipPath>
					<g clip-path="url(#SVGID_9_)">
						<polygon fill="#FFFFFF" points="60.4,222.3 101.3,211.6 61.3,225.3 						"/>
						<polygon fill="#FFFFFF" points="60.4,219.8 100.6,209.3 61.3,222.7 						"/>
						<polygon fill="#FFFFFF" points="60.4,217.2 100,206.9 61.3,220.2 						"/>
						<polygon fill="#FFFFFF" points="60.4,214.7 99.3,204.6 61.3,217.7 						"/>
						<polygon fill="#FFFFFF" points="60.4,212.1 98.7,202.2 61.3,215.1 						"/>
						<polygon fill="#FFFFFF" points="60.4,209.6 98.1,199.9 61.3,212.6 						"/>
						<polygon fill="#FFFFFF" points="60.4,207.1 97.4,197.5 61.3,210.1 						"/>
						<polygon fill="#FFFFFF" points="60.4,204.5 96.8,195.2 61.3,207.5 						"/>
						<polygon fill="#FFFFFF" points="60.4,202 96.2,192.8 61.3,205 						"/>
						<polygon fill="#FFFFFF" points="60.4,199.5 95.6,190.5 61.3,202.5 						"/>
						<polygon fill="#FFFFFF" points="60.4,196.9 94.9,188.1 61.3,199.9 						"/>
						<polygon fill="#FFFFFF" points="60.4,194.4 94.3,185.8 61.3,197.4 						"/>
						<polygon fill="#FFFFFF" points="60.4,191.9 93.7,183.4 61.3,194.8 						"/>
						<polygon fill="#FFFFFF" points="60.4,189.3 93,181.1 61.3,192.3 						"/>
						<polygon fill="#FFFFFF" points="60.4,186.8 92.4,178.7 61.3,189.8 						"/>
						<polygon fill="#FFFFFF" points="60.4,184.2 91.7,176.4 61.3,187.2 						"/>
						<polygon fill="#FFFFFF" points="60.4,181.7 91.1,174 61.3,184.7 						"/>
						<polygon fill="#FFFFFF" points="60.4,179.1 90.5,171.7 61.3,182.2 						"/>
						<polygon fill="#FFFFFF" points="60.4,176.6 89.8,169.3 61.3,179.6 						"/>
						<polygon fill="#FFFFFF" points="60.4,174.1 89.2,167 61.3,177.1 						"/>
						<polygon fill="#FFFFFF" points="60.4,171.5 88.6,164.6 61.3,174.5 						"/>
						<polygon fill="#FFFFFF" points="60.4,169 88,162.2 61.3,172 						"/>
						<polygon fill="#FFFFFF" points="60.4,166.5 87.3,159.9 61.3,169.4 						"/>
						<polygon fill="#FFFFFF" points="60.4,163.9 86.7,157.5 61.3,166.9 						"/>
						<polygon fill="#FFFFFF" points="60.4,161.4 86.1,155.2 61.3,164.4 						"/>
						<polygon fill="#FFFFFF" points="60.4,158.9 85.4,152.9 61.3,161.8 						"/>
						<polygon fill="#FFFFFF" points="60.4,156.3 84.8,150.5 61.3,159.3 						"/>
						<polygon fill="#FFFFFF" points="60.4,153.8 84.2,148.2 61.3,156.8 						"/>
						<polygon fill="#FFFFFF" points="60.4,151.2 83.5,145.8 61.3,154.2 						"/>
						<polygon fill="#FFFFFF" points="60.4,148.7 82.9,143.5 61.3,151.7 						"/>
						<polygon fill="#FFFFFF" points="60.4,146.2 82.2,141.1 61.3,149.2 						"/>
						<polygon fill="#FFFFFF" points="60.4,143.6 81.6,138.8 61.3,146.6 						"/>
						<polygon fill="#FFFFFF" points="60.4,141.1 81,136.4 61.3,144.1 						"/>
						<polygon fill="#FFFFFF" points="60.4,138.6 80.4,134 61.3,141.5 						"/>
						<polygon fill="#FFFFFF" points="60.4,136 79.7,131.7 61.3,139 						"/>
						<polygon fill="#FFFFFF" points="60.4,133.5 79.1,129.3 61.3,136.5 						"/>
						<polygon fill="#FFFFFF" points="60.4,130.9 78.5,127 61.3,133.9 						"/>
						<polygon fill="#FFFFFF" points="60.4,128.4 77.8,124.6 61.3,131.4 						"/>
						<polygon fill="#FFFFFF" points="60.4,125.9 77.2,122.3 61.3,128.9 						"/>
						<polygon fill="#FFFFFF" points="60.4,123.3 76.6,119.9 61.3,126.3 						"/>
						<polygon fill="#FFFFFF" points="60.4,120.8 75.9,117.6 61.3,123.8 						"/>
						<polygon fill="#FFFFFF" points="60.4,118.2 75.3,115.3 61.3,121.2 						"/>
						<polygon fill="#FFFFFF" points="60.4,115.7 74.6,112.9 61.3,118.7 						"/>
					</g>
				</g>
			</g>
			<g>
				
					<polygon id="SVGID_20_" fill="none" stroke="#FFFFFF" stroke-width="5.4541" stroke-linecap="round" stroke-linejoin="round" stroke-miterlimit="10" points="
					88.3,204.8 64.2,197.5 66.2,133.1 76.2,114 85.8,139.4 				"/>
			</g>
		</g>
	</g>
	<path fill="none" stroke="#FFFFFF" stroke-width="5.4541" stroke-miterlimit="10" stroke-dasharray="10.9082,10.9082" d="
		M80.5,121.2C53,129.9,47.6,98.6,68.7,91.6c9.3-3.1,18.8-6,18.8-6"/>
	<circle fill="#FFFFFF" cx="40.7" cy="156.2" r="9.9"/>
	<g>
		<path fill="#5F462B" d="M39.5,159.5c0.2,0,0.5-0.1,0.7-0.1s0.4,0,0.7,0c0.2,0,0.4,0,0.6,0c0.2,0,0.4,0,0.5,0c0-0.3,0-0.5,0-0.7
			s0-0.4,0-0.6c0.2,0,0.4,0,0.7,0s0.6,0,0.9,0c0.1,0,0.2,0,0.3,0s0.2,0,0.2,0.1v0.1c0,0.1-0.1,0.1,0,0.1c0,0.1,0,0.1,0.1,0.1
			c0,0,0.1,0,0.1,0.1v0.1c0,0-0.1,0-0.1,0.1c0,0.3,0.1,0.6,0.1,0.9c0.1,0.3,0.1,0.7,0,1c0,0,0,0,0.1,0.1c0,0,0.1,0,0.1,0.1
			c-0.1,0.1-0.1,0.1-0.2,0.1c-0.1,0-0.1,0.1-0.2,0.1c0,0-0.1,0-0.1,0.1l0,0h-0.1h-0.1h0.1H44c0,0.1,0,0.1,0,0.1v0.1
			c-0.5,0.1-1.1,0.1-1.6,0.1s-1.1,0-1.6,0c-0.4,0-0.8,0-1.3,0s-0.9,0-1.3,0c-0.1,0-0.1,0-0.2,0c-0.1,0-0.1,0-0.2,0
			c-0.2,0-0.3,0-0.5,0s-0.3,0-0.5,0c0-0.1,0-0.3,0-0.4s0-0.2,0-0.3h-0.1c0,0.1-0.1,0.1-0.1,0s0-0.1,0.1-0.1s0.1,0,0.1-0.1
			c0-0.4,0.1-0.8,0.2-1.1c0.1-0.3,0.3-0.7,0.4-1c0.1-0.1,0.2-0.2,0.2-0.3s0.1-0.2,0.2-0.3c0-0.1,0.1-0.1,0.1-0.1
			c0.1-0.1,0.1-0.1,0.2-0.1s0.1-0.1,0.1-0.2c0.1-0.1,0.1-0.1,0.1-0.1c0.1-0.1,0.1-0.1,0.3-0.2c0.1-0.1,0.2-0.1,0.3-0.2
			s0.1-0.1,0.2-0.2c0.1-0.1,0.1-0.1,0.2-0.2c0.2-0.1,0.3-0.3,0.5-0.4s0.3-0.2,0.5-0.4c0.3-0.3,0.7-0.6,1.1-0.9
			c0-0.1,0.1-0.2,0.1-0.3s0.1-0.2,0.2-0.3c0-0.1,0-0.2,0.1-0.3c0-0.1,0-0.3,0.1-0.4c0-0.1,0-0.2-0.1-0.3c0-0.1-0.1-0.2-0.2-0.2
			c0-0.1-0.1-0.2-0.1-0.3s-0.2-0.1-0.3-0.2c-0.1,0-0.2,0-0.2,0c-0.1,0-0.1,0-0.2-0.1c-0.1,0-0.2,0-0.3,0.1c-0.1,0-0.2,0-0.2,0.1
			c-0.1,0.1-0.2,0.1-0.2,0.2c-0.1,0.1-0.1,0.2-0.2,0.3c0,0.1,0,0.1,0.1,0.1s0.1,0,0.1,0.1s0,0.1-0.1,0.1s-0.1,0-0.2,0.1
			c0,0.2-0.1,0.3-0.1,0.5s-0.1,0.3-0.1,0.5c-0.1,0-0.1,0.1-0.2,0c-0.1,0-0.1,0-0.1,0.1l0,0c0,0,0,0,0-0.1c-0.1,0-0.1,0-0.3,0
			s-0.2,0-0.3,0s-0.2,0-0.3,0s-0.2,0-0.2,0c-0.1,0-0.2,0-0.3,0s-0.3,0-0.4-0.1c0-1,0.2-1.9,0.5-2.5c0.4-0.6,0.9-1.1,1.7-1.4
			c0.2,0,0.5,0,0.7-0.1c0.2,0,0.5-0.1,0.7,0c0.3,0,0.5,0.1,0.7,0.1c0.3,0.1,0.5,0.1,0.7,0.2c0.1,0.1,0.1,0.1,0.2,0.2
			c0.1,0,0.2,0.1,0.2,0.1c0.1,0.1,0.1,0.1,0.2,0.2c0.1,0.1,0.1,0.1,0.2,0.2c0.1,0.1,0.1,0.1,0.2,0.2c0,0.1,0.1,0.1,0.2,0.2l0.1,0.1
			l0.1,0.1c0.1,0.1,0.1,0.3,0.2,0.5c0,0.2,0.1,0.4,0.2,0.5c0,0.1,0,0.3,0,0.4c0,0.2,0,0.3,0,0.5c0,0.1,0,0.1,0.1,0.1s0.1,0,0.1,0.1
			s0,0.1-0.1,0.1s-0.1,0-0.1,0.1s0,0.1,0,0.2c0,0,0,0.1,0,0.2c-0.1,0.1-0.1,0.2-0.2,0.3c-0.1,0.1-0.1,0.2-0.1,0.3l-0.1,0.1l-0.1,0.1
			c-0.3,0.4-0.7,0.7-1,1.1c-0.1,0.1-0.2,0.2-0.3,0.2s-0.2,0.2-0.2,0.3c-0.2,0.1-0.3,0.2-0.5,0.4c-0.1,0.2-0.3,0.3-0.4,0.4
			c0,0,0,0,0,0.1v0.1c0,0-0.1,0-0.1,0.1h-0.1c-0.1,0.2-0.3,0.4-0.5,0.5s-0.4,0.3-0.5,0.5c0,0,0.1,0,0.1,0.1c0.1,0,0.1,0.1,0.1,0.1
			c-0.1,0.1-0.1,0.1-0.3,0.2S39.6,159.4,39.5,159.5z M37.1,160.6c0,0.1,0,0.1,0,0.2s0,0.1,0,0.2c0.1,0,0.1-0.1,0.2-0.1
			c0.1,0,0.1-0.1,0.2,0c0,0,0,0,0-0.1l0,0c0.1-0.1,0.3-0.1,0.3-0.1c0.1-0.1,0.2-0.1,0.3-0.2l0,0l0,0c0,0,0-0.1,0.1-0.1
			c0,0,0-0.1,0.1-0.1l0,0l0,0c0.1,0,0.1,0,0.1-0.1s0.1-0.1,0.1-0.1h0.1h0.1c0,0,0.1,0,0.1-0.1l0.1-0.1l0.1-0.1l0.1-0.1
			c-0.1,0-0.1,0-0.1-0.1c0,0,0,0,0.1,0c0,0,0,0,0.1,0h-0.1c0,0-0.1,0-0.1,0.1s-0.1,0.1-0.1,0.1h-0.1l0.1-0.1v-0.1
			c-0.3,0.2-0.6,0.3-0.9,0.5C37.7,160.3,37.4,160.5,37.1,160.6z M37,161.2v0.1c0.1,0,0.1,0,0.2-0.1c0-0.1,0.1-0.1,0.1,0
			c0,0,0,0,0-0.1c0.1,0,0.1,0,0.2-0.1c0.1,0,0.1-0.1,0-0.1c0.1,0,0.2,0,0.3-0.1s0.2-0.1,0.3-0.1c0-0.1,0-0.1,0-0.1
			c0.1,0,0.1,0,0.2-0.1c0.1,0,0.1-0.1,0.2-0.1c0.1-0.1,0.2-0.1,0.3-0.2s0.3-0.1,0.3-0.2v0.1c0,0,0,0-0.1,0c0.1,0,0.1,0,0.1,0
			s0,0,0-0.1c0.1-0.1,0.2-0.1,0.2-0.1s0.1-0.1,0.2-0.1C38.8,160.3,37.9,160.8,37,161.2z M38.2,159.8L38.2,159.8L38.2,159.8
			C38.3,159.8,38.3,159.8,38.2,159.8c0.1-0.1,0.2-0.1,0.3-0.1c0-0.1,0-0.1,0.1-0.1s0.1,0,0.1-0.1c-0.1,0-0.1,0-0.1,0
			c0.2,0,0.3-0.1,0.5-0.2s0.2-0.3,0.2-0.4c-0.2,0.1-0.4,0.2-0.6,0.4c-0.3,0.1-0.5,0.3-0.7,0.4c-0.1,0-0.1,0.1-0.3,0.1
			c-0.1,0-0.2,0.1-0.3,0.1s-0.2,0.1-0.2,0.2s-0.1,0.1-0.1,0.2h0.1h0.1c-0.1,0-0.1,0,0,0h0.1c0,0,0,0.1,0.1,0.1c0-0.1,0-0.1,0,0
			s0,0,0,0c0-0.1,0-0.1,0.1-0.1s0.1-0.1,0.1-0.1c0.1,0,0.1,0,0.1,0s0,0,0-0.1c0.1,0,0.2-0.1,0.3-0.1C38,159.9,38.1,159.9,38.2,159.8
			z M37.7,159.6c-0.1,0.1-0.2,0.1-0.3,0.1s-0.2,0.1-0.2,0.2c0.1,0,0.1-0.1,0.3-0.1C37.6,159.8,37.7,159.7,37.7,159.6
			C37.8,159.7,37.8,159.7,37.7,159.6L37.7,159.6z M40.6,157.7c-0.5,0.3-1.1,0.6-1.7,0.8c-0.6,0.3-1.1,0.5-1.6,0.9v0.1v0.1
			c0.1,0,0.1-0.1,0.2-0.1c0.1,0,0.1-0.1,0.2-0.1c0.1,0,0.1-0.1,0.2-0.1c0.1-0.1,0.1-0.1,0.2,0c0-0.1,0-0.1,0.1-0.1s0.1,0,0.1,0l0,0
			l0,0c0,0,0,0,0.1,0s0,0,0,0s0,0,0-0.1s0,0,0,0l0,0h0.1V159c0,0,0,0,0.1,0h0.1l0,0l0,0l0,0h0.1c0,0,0,0,0.1-0.1c0,0,0,0,0.1,0
			s0,0,0.1,0c0-0.1,0.1-0.1,0.1-0.1c0.1,0,0.1,0,0.2-0.1c0,0,0,0,0-0.1s0,0,0,0c0.1-0.1,0.3-0.2,0.5-0.3s0.3-0.1,0.4-0.3
			c0.1,0,0.1,0,0.1,0c0-0.1,0.1-0.1,0.2-0.1s0.1-0.1,0.2-0.2C40.6,157.7,40.6,157.7,40.6,157.7z M37.6,158.7c0,0.1,0,0.1-0.1,0.2
			s-0.1,0.1-0.1,0.2c0.2-0.1,0.4-0.3,0.5-0.3s0.4-0.2,0.6-0.3c0,0,0-0.1,0.1-0.1s0,0,0.1-0.1h0.1c0,0,0.1,0,0.1-0.1
			c-0.1,0-0.1,0-0.1-0.1c0.1,0,0.1,0,0.1,0s0.1-0.1,0.2,0c0,0,0,0,0-0.1s0,0,0-0.1c0.1,0,0.1,0,0.1,0h0.1h0.1c0,0,0.1,0,0.1-0.1h0.1
			c0,0,0,0,0-0.1s0,0,0.1,0s0,0,0,0s0,0,0-0.1h0.1h0.1c0-0.1,0-0.1,0.1-0.1s0.1,0,0.2-0.1s0.1-0.1,0.1-0.1l0.1-0.1
			c0.1,0,0.1-0.1,0.2-0.1c0.2-0.2,0.4-0.3,0.7-0.4c0-0.1,0.1-0.1,0.2-0.2s0.1-0.1,0.1-0.2c-0.6,0.4-1.3,0.8-2,1.1
			C39,158,38.3,158.4,37.6,158.7z M37.6,153.8c0,0.1,0,0.1,0,0.1v0.1h0.2v-0.1c0,0,0,0,0.1-0.1s0.3-0.1,0.4-0.2
			c0.1-0.1,0.2-0.2,0.4-0.3c0,0,0,0,0,0.1c0,0,0,0,0.1,0c0,0,0,0,0-0.1c0,0,0,0,0-0.1c0,0,0.1,0,0.1-0.1C39,153,39,153,39.1,153
			c0,0,0-0.1,0.1-0.1s0.1-0.1,0.1-0.1c0.1,0,0.1-0.1,0.2-0.1s0.1-0.1,0.2-0.1c0-0.1,0.1-0.1,0.1-0.2c0.1,0,0.1-0.1,0.1-0.2
			c0.1,0,0.1,0,0.2-0.1c0.1-0.1,0.1-0.1,0.1-0.1c-0.4,0.3-0.7,0.5-1.1,0.7C38.3,153.3,37.9,153.6,37.6,153.8z M38.6,152.6
			L38.6,152.6c0.1-0.1,0.1-0.1,0.1-0.1s0,0,0.1-0.1s0.1,0,0.1,0v-0.1c0,0,0,0,0.1-0.1c0.1,0,0.2-0.1,0.3-0.1
			c0.1-0.1,0.2-0.1,0.3-0.2s0.2-0.1,0.3-0.2s0.2-0.1,0.3-0.1c0-0.1,0.1-0.1,0.1-0.1c0.1,0,0.1,0,0.1,0c0-0.1,0.1-0.1,0.1-0.1
			c0.1,0,0.1-0.1,0.1-0.1l0,0c0.1,0,0.1-0.1,0.1-0.1s0.1-0.1,0.1,0c0-0.1,0-0.1,0.1-0.1S41,151,41,151c0.1,0,0.1-0.1,0.1-0.1
			l0.1-0.1c0,0,0,0-0.1,0H41c-0.4,0.3-0.9,0.6-1.3,0.9c-0.5,0.3-0.9,0.6-1.4,0.9c-0.1,0.1-0.3,0.3-0.5,0.3c-0.1,0.1-0.1,0.3-0.1,0.4
			s0,0.3-0.1,0.4c0.1-0.1,0.2-0.1,0.3-0.2s0.2-0.1,0.4-0.2c0,0-0.1,0-0.1-0.1h0.1h0.1c0-0.1,0-0.1,0.1-0.1s0.2-0.1,0.2-0.1
			c0,0.1,0,0.1,0.1,0s0.1-0.1,0.1,0c-0.1,0-0.1-0.1-0.1-0.1c0.1,0,0.1,0,0.1,0l0.1-0.1l0,0l0,0c0.1,0,0.1-0.1,0.2-0.1
			c0.1-0.1,0.1-0.1,0.2-0.1c0,0,0,0,0.1-0.1c0.1,0,0.1-0.1,0.1-0.1c0.1-0.1,0.2-0.1,0.2-0.2s0.1-0.1,0.2-0.1l0,0l0,0
			c0.2-0.1,0.3-0.2,0.5-0.3c0.2-0.1,0.3-0.3,0.5-0.3c0,0,0-0.1,0.1-0.1s0.1-0.1,0.2-0.1c0,0,0,0-0.1,0l0,0c0.1,0,0.1-0.1,0.2-0.1
			c0.1,0,0.1-0.1,0.2-0.1c-0.1,0-0.2,0-0.3,0.1s-0.2,0.1-0.2,0.2c-0.3,0.2-0.6,0.4-0.9,0.6s-0.6,0.4-0.9,0.6
			c-0.2,0.1-0.5,0.3-0.7,0.4c-0.3,0.1-0.5,0.3-0.7,0.4c-0.1,0-0.1-0.1-0.1-0.1c0.1-0.1,0.2-0.1,0.3-0.2
			C38.4,152.7,38.5,152.6,38.6,152.6z M39,160.7C39,160.6,39,160.6,39,160.7c0.1-0.1,0.1-0.1,0.1,0c0,0,0.1-0.1,0.2-0.2
			c0.1-0.1,0.2-0.1,0.2-0.1l0,0l0,0c0.1,0,0.2,0,0.2-0.1c0.1-0.1,0.1-0.1,0.3-0.2s0.3-0.1,0.3-0.2c-0.1,0-0.1,0-0.2,0
			S40,160,39.9,160c-0.4,0.2-0.8,0.4-1.2,0.6s-0.8,0.4-1.2,0.6c0.1,0,0.1,0,0.2,0s0.1-0.1,0.1-0.1c0.1-0.1,0.1-0.1,0.2-0.1
			s0.1,0,0.1-0.1h0.1c0,0,0,0,0.1,0v-0.1h0.1h0.1c0,0,0,0,0-0.1c0.1,0,0.1,0,0.1,0l0,0c0.1,0,0.1,0,0.1,0
			C38.8,160.7,38.9,160.7,39,160.7z M38.4,159.2c-0.1,0-0.3,0.1-0.4,0.1c-0.1,0.1-0.2,0.1-0.3,0.2c0.1,0,0.2-0.1,0.3-0.1
			s0.2-0.1,0.3-0.1C38.3,159.3,38.3,159.3,38.4,159.2C38.3,159.3,38.4,159.3,38.4,159.2c0,0,0.1,0,0.1-0.1
			C38.5,159.2,38.5,159.2,38.4,159.2L38.4,159.2z M38.3,158.2L38.3,158.2c0.1,0,0.2-0.1,0.2-0.1s0.1,0,0.1-0.1s0.1,0,0.1-0.1
			l0.1-0.1h0.1c0-0.1,0-0.1,0-0.1H39c0.1-0.1,0.2-0.1,0.3-0.2s0.2-0.1,0.3-0.1c0,0,0,0,0.1,0s0.1,0,0.1,0s0,0,0-0.1l0,0
			c0.1,0,0.2,0,0.3-0.1s0.2-0.1,0.3-0.1l0,0c0,0,0-0.1,0.1-0.1c0,0,0,0,0.1,0c0,0,0,0,0.1,0c0.1-0.1,0.2-0.2,0.3-0.2
			s0.2-0.1,0.3-0.2c0.1,0,0.2-0.1,0.3-0.1c0.1-0.1,0.2-0.1,0.3-0.2l0,0H42c0.2-0.1,0.4-0.2,0.5-0.3s0.3-0.2,0.4-0.4
			c-0.3,0.2-0.6,0.3-1,0.5c-0.3,0.2-0.7,0.3-1,0.5c-0.2,0.1-0.3,0.2-0.5,0.3c-0.1,0.1-0.3,0.2-0.5,0.3h-0.1h-0.1c0,0,0,0-0.1,0.1
			c0,0,0,0-0.1,0c-0.1,0.1-0.1,0.1-0.2,0.1c-0.1,0-0.1,0.1-0.2,0.1l-0.1,0.1c0,0-0.1,0-0.1,0.1l0,0c0,0,0,0-0.1,0
			c-0.1,0.1-0.2,0.1-0.3,0.2s-0.2,0.1-0.3,0.1c0.1,0,0.1,0,0.1,0c-0.1,0-0.2,0.1-0.2,0.1c0,0.1-0.1,0.1-0.2,0.1c0,0.1,0,0.1-0.1,0.1
			s-0.1,0.1,0,0.1c0.1-0.1,0.2-0.1,0.3-0.1C38.1,158.3,38.2,158.3,38.3,158.2z M37.8,152.6C37.9,152.6,37.9,152.6,37.8,152.6
			c0.1-0.1,0.1-0.1,0.2-0.1c0-0.1,0-0.1,0-0.1s0,0-0.1-0.1c0,0,0,0.1-0.1,0.1C37.8,152.5,37.8,152.5,37.8,152.6z M40,150.7
			c-0.3,0.2-0.7,0.4-1,0.6s-0.6,0.5-1,0.7c0,0.1,0,0.1-0.1,0.1s0,0.1,0,0.1c0.1-0.1,0.1-0.1,0.2-0.1c0.1,0,0.1-0.1,0.2-0.1
			c0.1-0.1,0.3-0.3,0.4-0.3c0.2-0.1,0.3-0.2,0.5-0.3c0,0,0.1-0.1,0.2-0.1c0.1-0.1,0.2-0.1,0.3-0.1c0.1-0.1,0.1-0.1,0.1-0.2
			s0.1-0.1,0.2-0.1C40.1,150.8,40.1,150.8,40,150.7C40.1,150.7,40.1,150.7,40,150.7c0.1,0,0.1,0,0.2,0l0,0
			C40.1,150.7,40.1,150.7,40,150.7C40,150.8,40,150.8,40,150.7z M38.5,157.9C38.5,157.9,38.4,157.9,38.5,157.9c-0.1,0-0.1,0-0.1,0
			s0,0-0.1,0s0,0,0-0.1c-0.1,0-0.1,0.1-0.1,0.1l-0.1,0.1c0.1,0,0.1,0,0.2-0.1C38.3,157.8,38.4,157.8,38.5,157.9c0,0,0,0-0.1,0
			s0,0,0,0C38.3,158,38.4,157.9,38.5,157.9C38.4,157.9,38.4,157.9,38.5,157.9z M38,154.1c0,0,0.1,0,0.1-0.1c0.1,0,0.1-0.1,0-0.1
			C38.2,154,38.2,154,38,154.1C38.1,154,38.1,154,38,154.1z M39,161.1c0.1-0.1,0.1-0.1,0.1-0.1c0.1,0,0.1,0,0.2-0.1
			c0.1-0.1,0.1-0.1,0.1-0.1l0,0l0,0c0.1,0,0.1,0,0.1-0.1s0,0,0.1,0c0,0,0,0,0-0.1l0,0c0.1,0,0.1,0,0.1-0.1c0,0,0.1-0.1,0.1,0v-0.1
			c0.1,0,0.3-0.1,0.4-0.2c0.1-0.1,0.3-0.2,0.5-0.2c0-0.1,0-0.1,0.1-0.1s0.1,0,0.2,0v-0.1h0.1c0,0,0,0,0.1,0c0,0,0,0,0-0.1
			c-0.3,0.1-0.7,0.3-1,0.5s-0.7,0.3-1,0.5c-0.1,0-0.1,0.1-0.2,0.1c-0.1,0-0.1,0.1-0.2,0.1c-0.1,0-0.1,0.1-0.2,0.1
			c-0.1,0-0.1,0.1-0.2,0.1c0.1,0,0.2,0,0.3,0s0.1,0,0.2-0.1c0.1,0,0.1-0.1,0.1-0.1C38.8,161.1,38.9,161.1,39,161.1z M39.1,151.1
			L39.1,151.1c-0.2,0.1-0.3,0.1-0.4,0.2c-0.1,0.1-0.3,0.2-0.3,0.3c0.1-0.1,0.3-0.2,0.5-0.3c0.2-0.1,0.3-0.2,0.4-0.3
			C39.3,150.9,39.2,150.9,39.1,151.1C39.2,151,39.1,151.1,39.1,151.1z M41,156.1c0,0,0-0.1,0.1-0.1h0.1c0,0,0-0.1,0.1-0.1h0.1h0.1
			c0,0,0.1,0,0.1-0.1c0,0,0,0,0.1,0c0,0,0,0,0.1,0v-0.1c0.1,0,0.1-0.1,0.2-0.1s0.1-0.1,0.2-0.1c0.1,0,0.1-0.1,0.1-0.1s0.1,0,0.1-0.1
			c0.1-0.1,0.2-0.1,0.3-0.2s0.1-0.1,0.2,0V155H43h0.1c0,0,0.1,0,0.1-0.1h0.1l0.1-0.1l0.1-0.1c0.1,0,0.1-0.1,0.1-0.1l0.1-0.1
			c-0.7,0.3-1.4,0.7-2.1,1.1c-0.7,0.4-1.4,0.8-2,1.2c-0.1,0.1-0.2,0.1-0.3,0.3c-0.1,0.1-0.2,0.2-0.3,0.2c-0.1,0.1-0.2,0.1-0.3,0.2
			s-0.2,0.2-0.2,0.3c0.1-0.1,0.2-0.2,0.3-0.2s0.2-0.1,0.3-0.3l0,0l0,0l0.1-0.1l0.1-0.1c0.1,0,0.1,0,0.2,0c0.1-0.1,0.1-0.1,0.1-0.1
			h-0.1c0.1,0,0.1-0.1,0.1-0.1h0.1c-0.1,0-0.1,0-0.1,0c0.1,0,0.1,0,0.2-0.1c0.1,0,0.1-0.1,0.2-0.1l0,0l0,0c0,0,0,0,0,0.1l0,0
			c0,0,0.1-0.1,0.2-0.1s0.1-0.1,0.1-0.1c0.1,0,0.1,0,0,0.1s0,0,0,0c0.1,0,0.1,0,0-0.1s-0.1-0.1,0-0.1s0.1,0,0.2,0
			c-0.1,0-0.1,0-0.1,0c0.1,0,0.1-0.1,0.2-0.1C40.9,156.1,40.9,156.1,41,156.1z M38.5,157.8c0.1,0,0.2,0,0.2-0.1c0,0,0.1-0.1,0.2,0
			l-0.1-0.1c0.1,0,0.2-0.1,0.3-0.1c0.1-0.1,0.2-0.1,0.3-0.1c0-0.1,0-0.1,0.1-0.1s0.2-0.1,0.3-0.1c0.1-0.1,0.1-0.1,0.2-0.1h0.1
			c0,0,0.1-0.1,0-0.1c0.1,0,0.1,0,0.2-0.1s0.1-0.1,0.1-0.2c0.1,0,0.3,0,0.3-0.1s0.2-0.1,0.3-0.2v0.1c0-0.1,0-0.1,0.1-0.1
			s0.1,0,0.1-0.1l0,0l0,0c0-0.1,0-0.1,0.1-0.1c0,0,0.1,0,0.1-0.1c0,0,0,0.1,0.1,0.1c0-0.1,0.1-0.1,0.1-0.1s0.1-0.1,0.2-0.1
			c0,0,0.1,0,0.1-0.1c0.1-0.1,0.1-0.1,0.2,0v-0.1l0,0l0,0c0,0,0,0,0-0.1c0.3-0.1,0.5-0.2,0.7-0.3c0.3-0.1,0.4-0.3,0.5-0.5
			c-0.4,0.2-0.8,0.5-1.3,0.7c-0.4,0.2-0.9,0.4-1.3,0.7c-0.4,0.2-0.8,0.5-1.2,0.7C39.2,157.3,38.8,157.5,38.5,157.8z M38.5,154.1
			c0.2,0,0.4,0,0.5-0.1s0.2-0.2,0.3-0.4c-0.2,0.1-0.3,0.1-0.5,0.2C38.7,153.9,38.6,154,38.5,154.1z M38.8,152L38.8,152L38.8,152
			C38.8,151.9,38.8,151.9,38.8,152C38.8,151.9,38.8,151.9,38.8,152z M38.8,153.6L38.8,153.6c0.1-0.1,0.1-0.1,0.1-0.1
			C38.9,153.6,38.9,153.6,38.8,153.6L38.8,153.6z M38.9,151.9C38.9,151.9,39,151.9,38.9,151.9c0.1-0.1,0.1-0.1,0.1-0.1
			S38.9,151.8,38.9,151.9z M39,153.5c0,0,0.1,0,0.1-0.1c0.1,0,0.1-0.1,0.1-0.1C39.1,153.4,39.1,153.4,39,153.5
			C39,153.5,38.9,153.5,39,153.5z M41.9,159.8c-0.5,0.3-1,0.5-1.4,0.8c-0.5,0.3-1,0.5-1.5,0.7c0.1,0,0.2,0,0.3,0s0.1-0.1,0.2-0.1
			c0,0,0,0,0-0.1c0,0,0,0,0.1,0c0.2-0.1,0.3-0.1,0.5-0.2c0.1-0.1,0.3-0.1,0.5-0.2c0-0.1,0-0.1,0.1-0.1c0,0,0,0,0-0.1
			c0.1,0,0.2-0.1,0.2-0.1c0.1-0.1,0.1-0.1,0.2-0.1c0-0.1,0.1-0.1,0.2-0.1c0.1,0,0.1,0,0.2-0.1c0.1,0,0.1-0.1,0.1-0.1l0.1-0.1
			C41.8,159.9,41.8,159.9,41.9,159.8c0.1,0.1,0.2,0,0.2-0.1c0,0,0,0-0.1,0C41.9,159.8,41.9,159.8,41.9,159.8z M39.1,151.8
			c0.1,0,0.1,0,0.1-0.1l0.1-0.1c0.1-0.1,0.3-0.1,0.4-0.2c0.1-0.1,0.3-0.2,0.4-0.3c0.1,0,0.1,0,0.1-0.1l0,0l0,0
			c-0.2,0.2-0.4,0.3-0.6,0.5C39.5,151.5,39.3,151.6,39.1,151.8z M39.3,153.4C39.3,153.3,39.3,153.3,39.3,153.4
			c0.1-0.1,0.1-0.1,0.1-0.1C39.3,153.3,39.3,153.3,39.3,153.4C39.2,153.3,39.2,153.3,39.3,153.4z M39.3,151c0.1,0,0.1,0,0.1,0
			l0.1-0.1C39.4,150.9,39.3,150.9,39.3,151z M39.3,159.8c0.1,0,0.1,0,0.1-0.1C39.4,159.7,39.4,159.7,39.3,159.8c0-0.1,0-0.1,0-0.1
			V159.8z M39.4,158.7L39.4,158.7C39.4,158.7,39.3,158.7,39.4,158.7C39.4,158.8,39.4,158.8,39.4,158.7
			C39.4,158.8,39.4,158.8,39.4,158.7z M39.6,161.3c0.1,0,0.3,0,0.4,0s0.2-0.1,0.3-0.1s0.2-0.1,0.3-0.1s0.2-0.1,0.3-0.1
			c0,0,0,0,0-0.1l0,0c0.2-0.1,0.4-0.2,0.6-0.3c0.2-0.1,0.3-0.2,0.5-0.4c0,0,0,0,0.1,0s0.1,0,0.1,0c0-0.1,0-0.1,0.1-0.1
			c0.1-0.1,0.2-0.1,0.3-0.1s0.1-0.1,0.3-0.1h-0.1c0.3-0.1,0.5-0.2,0.6-0.4c0.2-0.1,0.4-0.3,0.6-0.4c0-0.1,0-0.1,0-0.1
			c-0.7,0.5-1.4,0.9-2.1,1.2C41,160.5,40.2,160.9,39.6,161.3z M39.8,158.5L39.8,158.5L39.8,158.5z M39.8,159.9h0.1c0,0,0.1,0,0-0.1
			C40,159.8,39.9,159.8,39.8,159.9C39.8,159.8,39.8,159.8,39.8,159.9z M40.1,152.2L40.1,152.2L40.1,152.2c0.1,0,0.1,0,0.1,0h0.1
			c0,0,0,0,0.1-0.1c0,0,0,0,0.1-0.1c0.1,0,0.2-0.1,0.3-0.1c0.1-0.1,0.1-0.1,0.2-0.1c0.2-0.1,0.4-0.3,0.6-0.4
			c0.3-0.1,0.5-0.2,0.6-0.4c-0.1,0-0.1,0-0.1,0s-0.1,0-0.1-0.1c-0.3,0.2-0.6,0.5-0.9,0.7C40.7,151.8,40.4,152,40.1,152.2z
			 M40.3,150.9c0.1,0,0.1-0.1,0.2-0.1c0.1,0,0.1-0.1,0.1-0.1c-0.1,0.1-0.1,0.1-0.2,0.1C40.4,150.8,40.4,150.9,40.3,150.9z
			 M40.4,159.9h0.1c0.1,0,0.1,0,0.1-0.1C40.6,159.8,40.6,159.8,40.4,159.9C40.4,159.8,40.4,159.9,40.4,159.9z M43.2,159.9
			c0-0.1,0.1-0.1,0.2-0.1c0.1,0,0.1-0.1,0.2-0.1c0.1,0,0.1-0.1,0.2-0.1c0.1-0.1,0.1-0.1,0.1-0.2c-0.6,0.3-1.1,0.7-1.7,1
			c-0.5,0.3-1.1,0.7-1.7,1c0.1,0,0.2,0,0.2,0c0.1,0,0.1-0.1,0.2-0.1c0.1,0,0.1-0.1,0.2-0.1c0.1,0,0.1-0.1,0.2-0.1c0,0,0,0,0-0.1l0,0
			c0.1,0,0.1,0,0.2-0.1c0.1-0.1,0.1-0.1,0.2-0.1v-0.1l0,0l0,0c0.1,0,0.1,0,0.2-0.1s0.1-0.1,0.2-0.1l0,0l0,0l0,0
			c0.2-0.1,0.4-0.2,0.6-0.3C42.8,160.1,43,160,43.2,159.9z M40.7,157.7l0.1-0.1v-0.1C40.8,157.6,40.8,157.6,40.7,157.7
			C40.7,157.6,40.7,157.7,40.7,157.7z M40.7,152.1C40.7,152.2,40.8,152.2,40.7,152.1c0.1,0.1,0.2,0.1,0.2,0.1c0-0.1,0.1-0.1,0.3-0.2
			c0-0.1,0.1-0.1,0.1-0.1c0.1,0,0.1,0,0.1,0c0-0.1,0-0.1,0.1-0.1s0.1,0,0.1,0c0.1-0.1,0.3-0.2,0.4-0.3c0.2-0.1,0.3-0.1,0.4-0.3
			c-0.4,0.1-0.7,0.3-1,0.5C41.3,151.8,41,152,40.7,152.1z M40.8,155.6c0.1,0,0.1,0,0.1-0.1C40.9,155.5,40.8,155.6,40.8,155.6z
			 M41.7,155L41.7,155c0.1,0,0.1-0.1,0.3-0.2c0.1-0.1,0.2-0.1,0.3-0.2c0,0,0,0-0.1,0c0,0,0,0-0.1,0c0.1,0,0.1,0,0.1,0s0.1,0,0.1-0.1
			s0.1,0,0.1-0.1h0.1c0,0,0,0,0-0.1c0,0,0,0,0-0.1c0.2-0.1,0.3-0.2,0.5-0.3c0.2-0.1,0.3-0.2,0.5-0.4c0,0,0.1,0,0.1-0.1h0.1v-0.1
			c0,0,0-0.1-0.1-0.1c-0.3,0.2-0.6,0.4-1,0.6c-0.3,0.2-0.7,0.4-1,0.6c-0.1,0.1-0.3,0.2-0.4,0.3c-0.1,0.1-0.2,0.2-0.3,0.3
			c-0.1,0-0.1,0.1-0.1,0.1s-0.1,0.1,0,0.1s0.1-0.1,0.1-0.1L41,155c0-0.1,0-0.1,0.1-0.1s0.1,0,0.2,0c0-0.1,0-0.1,0-0.1
			C41.6,155,41.6,155,41.7,155L41.7,155L41.7,155z M41.8,152.1c0.1,0,0.2-0.1,0.2-0.1s0.1-0.1,0.2-0.2c0,0,0,0,0.1,0s0.1,0,0.1,0
			c0-0.1,0.1-0.1,0.1-0.1s0.1,0,0.1-0.1c0.1,0,0.1-0.1,0.1-0.1l0.1-0.1c-0.1,0-0.1,0-0.2,0s-0.1,0.1-0.2,0.1
			c-0.3,0.1-0.5,0.3-0.7,0.4c-0.3,0.1-0.5,0.3-0.7,0.4c0.1,0,0.1,0,0.1,0l0.1,0.1c0.1-0.1,0.2-0.1,0.3-0.2
			C41.7,152.2,41.8,152.1,41.8,152.1z M41.7,161.2c0.1-0.1,0.2-0.1,0.2-0.1c0.1,0,0.1,0,0.1-0.1c0.1,0,0.2-0.1,0.3-0.1
			c0.1-0.1,0.2-0.1,0.2-0.1c0.1,0,0.1,0,0.1,0h0.1c0-0.1,0-0.1,0-0.1h0.1c0.1-0.1,0.3-0.1,0.3-0.2c0.1-0.1,0.2-0.1,0.4-0.2
			c0-0.1,0.1-0.1,0.1-0.1s0.1,0,0.2-0.1V160c0,0,0,0,0.1,0v-0.1v-0.1c0,0.1,0,0.1,0,0.1h-0.1c-0.1,0-0.1,0.1-0.1,0.1
			c-0.1,0-0.1,0.1-0.1,0.1c-0.4,0.2-0.8,0.5-1.2,0.7s-0.8,0.4-1.2,0.7c0.1,0,0.3,0,0.3,0C41.6,161.3,41.7,161.2,41.7,161.2z
			 M41.3,159.8c-0.1,0-0.1,0-0.1,0C41.3,159.8,41.3,159.8,41.3,159.8z M42.7,151.8c-0.2,0.1-0.4,0.2-0.7,0.3s-0.4,0.2-0.6,0.4
			c0.1,0,0.2,0,0.3-0.1s0.1-0.1,0.2-0.2c0,0,0,0,0.1,0s0.1,0,0.1,0l0,0l0,0c0.2,0,0.3-0.1,0.3-0.2C42.5,151.9,42.5,151.9,42.7,151.8
			C42.7,151.9,42.7,151.8,42.7,151.8c0.1-0.1,0.1-0.1,0.2-0.1c0-0.1,0-0.1,0.1-0.1c0,0,0.1,0,0.1-0.1c-0.1,0-0.1,0-0.2,0.1
			C42.9,151.7,42.8,151.8,42.7,151.8z M41.8,152.8c0,0.1,0,0.2,0.1,0.2c0.1-0.1,0.2-0.2,0.4-0.3c0.2-0.1,0.3-0.2,0.4-0.3
			c0.1,0,0.1,0,0.1-0.1l0.1-0.1c0,0,0,0-0.1-0.1c0.1,0,0.2-0.1,0.2-0.1s0.1-0.1,0.2-0.1c0.1,0.1,0.1,0.1,0.2,0.2
			c0.1-0.1,0-0.1-0.1-0.2s-0.1-0.1-0.1-0.2c-0.3,0.1-0.5,0.2-0.7,0.3c-0.2,0.1-0.4,0.3-0.6,0.4H42h0.1c-0.1,0.1-0.1,0.1-0.2,0.1
			C41.9,152.7,41.9,152.8,41.8,152.8z M43.7,153.3c-0.3,0.2-0.7,0.4-1,0.5c-0.3,0.2-0.6,0.4-0.9,0.6c0.1,0,0.3-0.1,0.3-0.1
			c0.1-0.1,0.2-0.1,0.3-0.2h-0.1c0.2-0.1,0.4-0.3,0.7-0.4C43.3,153.6,43.5,153.4,43.7,153.3z M41.9,153.1v0.2
			c0.1-0.1,0.3-0.2,0.4-0.3s0.3-0.2,0.4-0.3h0.1c0.1-0.1,0.1-0.2,0.3-0.2c0.1,0,0.2-0.1,0.2-0.2c-0.2,0.1-0.5,0.3-0.7,0.4
			S42.2,153,41.9,153.1z M41.9,161.3c0.1,0,0.1,0,0.2,0s0.1,0,0.2,0c0-0.1,0-0.1,0-0.1c-0.1,0-0.1,0-0.1,0c0.1,0,0.1,0,0.1,0
			s0,0.1,0.1,0.1c0,0,0.1-0.1,0.1-0.2c0.1,0,0.1,0,0.1,0V161c0.1-0.1,0.2-0.1,0.3-0.2s0.2-0.1,0.2-0.1c-0.2,0.1-0.4,0.2-0.6,0.3
			C42.3,161.1,42.1,161.2,41.9,161.3z M43.7,152.9c-0.3,0.2-0.5,0.4-0.8,0.5s-0.6,0.3-0.9,0.5c0,0.1,0,0.1,0,0.1v0.1
			c0.1-0.1,0.1-0.1,0.2-0.2c0.2-0.1,0.3-0.1,0.4-0.2c0.1-0.1,0.3-0.2,0.4-0.2l0,0l0,0c0.1,0,0.2-0.1,0.2-0.1c0.1,0,0.1-0.1,0.2-0.1
			c0.1-0.1,0.1-0.1,0.2-0.1c0.1,0,0.1-0.1,0.3-0.1V153c0,0,0,0,0-0.1L43.7,152.9L43.7,152.9z M43.1,153c0.1-0.1,0.1-0.1,0.3-0.2
			c0.1-0.1,0.2-0.2,0.3-0.3c0,0,0,0,0-0.1v-0.1c-0.3,0.1-0.6,0.3-0.9,0.5c-0.3,0.2-0.6,0.4-0.9,0.6v0.1v0.1c0.1-0.1,0.2-0.1,0.3-0.2
			c0.1,0,0.2-0.1,0.3-0.2c0,0,0,0.1,0.1,0c0,0,0,0,0.1,0c0-0.1,0.1-0.1,0.1-0.1c0.1,0,0.1,0,0.1,0S42.9,153,43.1,153
			C43,153,43.1,153,43.1,153z M42.3,159.6L42.3,159.6L42.3,159.6C42.3,159.6,42.2,159.6,42.3,159.6
			C42.3,159.7,42.3,159.7,42.3,159.6z M43.1,158.4c-0.1,0.1-0.2,0.3-0.4,0.3c-0.2,0.1-0.3,0.2-0.4,0.3l0,0v0.1
			c0.1-0.1,0.3-0.1,0.4-0.2c0.1-0.1,0.2-0.1,0.4-0.2c0-0.1,0-0.1,0.1-0.1l0.1-0.1c0.1,0,0.1,0,0.1-0.1l0.1-0.1c-0.1,0-0.1,0-0.2,0
			C43.3,158.4,43.2,158.4,43.1,158.4z M43.1,159c-0.3,0.1-0.5,0.3-0.7,0.4c0,0,0,0,0.1,0l0,0c0,0,0,0-0.1,0l0,0c0.1,0,0.1,0,0.1,0
			s0,0.1-0.1,0.1c0.1,0,0.2-0.1,0.3-0.2s0.2-0.1,0.3-0.1C43,159.1,43,159.1,43.1,159c0,0.1,0.2,0,0.2-0.1c0.1-0.1,0.2-0.1,0.3-0.2
			c0-0.1,0-0.1,0.1-0.1s0.1-0.1,0.1-0.1l0,0l0,0l0,0C43.5,158.7,43.3,158.9,43.1,159z M42.3,158.5v0.1c0,0,0,0.1,0,0.2
			c0.1,0,0.1-0.1,0.3-0.1c0.1-0.1,0.1-0.1,0.2-0.2c-0.1,0-0.1,0-0.2,0C42.5,158.4,42.4,158.4,42.3,158.5z M42.7,161.3
			c0.1,0,0.2,0,0.2,0c0.1,0,0.1,0,0.1-0.1l0.1-0.1c0,0,0.1-0.1,0.2-0.1c0-0.1,0.1-0.1,0.2-0.2c0.1-0.1,0.1-0.1,0.2-0.1l0.1-0.1
			c0,0,0.1-0.1,0-0.1c-0.2,0.1-0.4,0.2-0.6,0.3C43,161,42.8,161.1,42.7,161.3z M43.2,154.4c0.1-0.1,0.2-0.1,0.3-0.2s0.2-0.1,0.3-0.2
			c-0.1,0.1-0.2,0.1-0.3,0.2C43.3,154.3,43.3,154.3,43.2,154.4z M43.9,160.4C43.9,160.4,44,160.4,43.9,160.4
			c0.1-0.1,0.1-0.1,0.1-0.1C43.9,160.3,43.9,160.4,43.9,160.4c-0.2,0-0.2,0.1-0.3,0.1C43.7,160.4,43.8,160.3,43.9,160.4
			C43.9,160.3,43.9,160.3,43.9,160.4z"/>
	</g>
	<g>
		<path fill="#FFFFFF" d="M82.8,231.5c-0.2,0.1-0.5,0.1-0.7,0.2l0.3-2c0.2,0,0.5,0,0.7,0c0.5-3,0.9-6.1,1.5-9.2
			c-2.6,1.7-5.8,2.9-5.7,5c0,1.1,1.1,1.1,2.3,0.7l-0.2,1.9c-2.6,0.8-4.1-0.2-4.1-1.7c0-1.1,0.7-2.5,2.2-3.7c1.6-1.3,4.1-2.5,5.9-3.6
			c0.3-0.9,0.5-1.8,0.8-2.6l2.1-0.3c-0.2,1.1-0.7,2-1.3,2.7c-0.9,3.8-1,7-1.6,10.6c4.5-3.6,3.9-14.9,10-16.8
			c1.7-0.5,2.5,0.2,2.5,1.3c0,0.1,0,0.2,0,0.3l-1.7,0.5c0-0.1,0-0.1,0-0.1c0-0.6-0.3-1-1-0.8c-3.6,1.1-2.8,12.1-9.3,16.3
			c4.6,2.5,3.4,12.6,7.4,11.4c1.5-0.5,2.2-1.4,2.7-2.9l1.8,0.1c-1.2,2.6-2.7,3.6-4.6,4.2c-6.1,1.8-5.7-9.2-8-12
			c-1.1,5.6-3,11.3-9.6,13.3c-4.9,1.5-7.1-0.9-7.2-4.2c-0.1-3.5,2.4-8,7-9.4c3-0.9,4.6,0.7,4.6,3.1c0,1.1-0.3,2.5-1.1,3.9l-1.9-0.4
			c0.6-1.2,0.9-2.4,0.9-3.3c0-1.6-1-2.5-2.8-2c-3,0.9-4.9,4.6-4.8,7.5c0.1,2.6,1.7,4.6,5.3,3.5C79.6,241.8,81.7,236.6,82.8,231.5z"
			/>
		<path fill="#FFFFFF" d="M95.5,227.7c0.1,0,0.6,0,0.6,0.1l0,0c-1.3,3.9-2.4,5.9-3.9,6.4c-1.4,0.4-2-0.7-2.1-3
			c0-1.6,0.2-3.8,0.6-6.4c0.9-5.8,2.4-8.7,3.8-9.2c1.2-0.4,1.6,0.5,1.6,1.5c0,1.3-0.4,3-0.6,3.7c-0.9,3.2-2.4,5.8-3.4,7.1
			c-0.1,1-0.1,1.9-0.1,2.6c0,1.5,0.4,1.8,0.9,1.7C93.7,232,94.6,230.4,95.5,227.7z M94.8,217c-0.6,0.2-2,5.3-2.5,9.6
			c1.1-2.4,2.8-6.5,2.8-9.2C95.1,217.1,95,217,94.8,217z"/>
		<path fill="#FFFFFF" d="M98.6,222c-0.7,3.7-1.4,6.4-1.3,8.2c0,0.6,0.3,0.7,0.5,0.6c0.6-0.2,1.4-1.6,2.4-4.5c0.1,0,0.7-0.1,0.7,0.1
			l0,0c-1,2.8-1.7,5.6-3.7,6.2c-1.3,0.4-1.7-0.6-1.8-2.1c-0.1-2.4,0.9-6.2,1.3-7.9L98.6,222z M96.8,220.1c0-0.8,0.6-1.9,1.6-2.2
			c0.8-0.2,1.1,0.2,1.1,0.8c0,0.8-0.6,1.9-1.6,2.2C97.2,221.1,96.8,220.7,96.8,220.1z"/>
		<path fill="#FFFFFF" d="M102.4,220.8l-0.2,1.2c0.6-1.1,1.3-1.8,2.1-2c1.3-0.4,1.9,0.7,2,2.4c0.1,2.1-0.8,5.2-2.1,7.2
			c2.1-1.1,3.1-3.3,4-5.7c0.1,0,0.7,0,0.7,0.1c-1,3-2.4,5.9-5.3,6.8c-1,0.3-1.9,0.2-2.4-0.5l-1.2,8l-1.6,0.5c0-0.1,0-0.1,0-0.2
			c0-1.7,0.4-4,0.9-5.7c0.6-4.3,1.5-9.9,1.5-11.4L102.4,220.8z M98.4,237.8c0,0.1,0,0.3,0,0.3C98.3,238.1,98.4,238,98.4,237.8z
			 M98.5,237.2c0,0.1-0.1,0.2-0.1,0.3C98.4,237.5,98.5,237.3,98.5,237.2z M101.4,227.7c0,0.1,0,0.3,0,0.4c0,0.7,0.2,1.3,0.9,1.1
			c1.1-0.3,2-4.2,2-6.2c0-0.8-0.2-1.3-0.5-1.2c-0.7,0.2-1.4,1.6-2,4L101.4,227.7z"/>
		<path fill="#FFFFFF" d="M110.5,218.4l-0.2,1.2c0.6-1.1,1.3-1.8,2.1-2c1.3-0.4,1.9,0.7,2,2.4c0.1,2.1-0.8,5.2-2.1,7.2
			c2.1-1.1,3.1-3.3,4-5.7c0.1,0,0.7,0,0.7,0.1c-1,3-2.4,5.9-5.3,6.8c-1,0.3-1.9,0.2-2.4-0.5l-1.2,8l-1.6,0.5c0-0.1,0-0.1,0-0.2
			c0-1.7,0.4-4,0.9-5.7c0.6-4.3,1.5-9.9,1.5-11.4L110.5,218.4z M106.5,235.4c0,0.1,0,0.3,0,0.3C106.4,235.7,106.5,235.5,106.5,235.4
			z M106.6,234.8c0,0.1-0.1,0.2-0.1,0.3C106.5,235,106.5,234.9,106.6,234.8z M109.5,225.3c0,0.1,0,0.3,0,0.4c0,0.7,0.2,1.3,0.9,1.1
			c1.1-0.3,2-4.2,2-6.2c0-0.8-0.2-1.3-0.5-1.2c-0.7,0.2-1.4,1.6-2,4L109.5,225.3z"/>
		<path fill="#FFFFFF" d="M125.9,213.8l1.7-0.5c-0.6,3.1-1,5.6-1.3,7.9c0,0.3,0,0.4,0,0.6c0,0.3,0.1,0.5,0.2,0.4
			c0.3-0.1,1.2-1.4,2.3-4.5c0.1-0.1,0.7,0,0.7,0.1c-1.4,3.9-2.5,5.8-3.6,6.1c-0.8,0.2-1.2-0.3-1.2-1.8c0-0.1,0-0.1,0-0.2
			c-0.5,1.5-1.3,2.9-2.7,3.3c-1.2,0.3-1.7-0.7-1.7-2.3c-0.1-3.1,1.7-8.2,3.9-8.9c0.9-0.3,1.4,0.1,1.6,1L125.9,213.8z M122.2,222.1
			c0,0.7,0.2,1.1,0.5,1c1.1-0.3,2.4-4.3,2.3-6.3c0-0.8-0.3-1.3-0.8-1.1C123.3,215.9,122.1,220.1,122.2,222.1z"/>
		<path fill="#FFFFFF" d="M132.2,217.9c-0.3-0.7-0.5-1.5-0.5-2.5c-0.1-2.4,0.8-5.1,2.4-5.6c0.9-0.3,1.7,0.2,1.7,1.4
			c0,2-0.8,4.6-2,6.9c0.2,0,0.4,0,0.7-0.1c1.1-0.3,1.7-1.4,2.2-2.8c0.1,0,0.7,0,0.7,0.1c-0.5,1.6-1.4,2.9-2.9,3.4
			c-0.3,0.1-0.6,0.1-0.9,0.1c-0.7,1.3-1.4,2.4-2.2,3.3l-1.3,0.4c-0.2-1.8-0.4-3.4-0.5-4.8c-0.1,0-0.6,0-0.7-0.1l0.5-1.5
			c0-0.4-0.1-0.8-0.1-1.2c0-0.8,0-1.6,0.1-2.3l1.7-0.5c0,0.1,0.1,0.2,0.1,0.4c0,0.6-0.2,1.2-0.6,2.5c0.1,1.2,0.3,3,0.5,5.1
			C131.4,219.5,131.8,218.7,132.2,217.9z M133.8,210.9c-0.7,0.2-1.3,2.5-1.3,4.5c0,0.5,0.1,0.9,0.1,1.3c1-2.5,1.4-4.8,1.4-5.5
			C134,210.9,133.9,210.8,133.8,210.9z"/>
	</g>
</g>
</svg>
