<?xml version="1.0" standalone="no"?>
<!DOCTYPE svg PUBLIC "-//W3C//DTD SVG 1.1//EN" "http://www.w3.org/Graphics/SVG/1.1/DTD/svg11.dtd" >
<svg xmlns="http://www.w3.org/2000/svg">
<metadata>Generated by IcoMoon</metadata>
<defs>
<font id="kumpan-icon" horiz-adv-x="512">
<font-face units-per-em="512" ascent="480" descent="-32" />
<missing-glyph horiz-adv-x="512" />
<glyph unicode="&#x20;" d="" horiz-adv-x="256" />
<glyph unicode="&#xe600;" d="M423.77 108.192l-1.344-1.616c-44.386-53.235-103.493-82.576-166.426-82.576-62.937 0-122.042 29.323-166.431 82.576l-1.339 1.616 0.313 2.070c8.574 55.913 37.78 100.825 82.245 126.49l3.16 1.821 2.519-2.638c21.004-22.033 49.246-34.161 79.523-34.161s58.52 12.136 79.518 34.161l2.524 2.638 3.158-1.821c44.467-25.665 73.673-70.577 82.251-126.49l0.329-2.070zM256 224.229c55.071 0 99.882 44.807 99.882 99.881 0 55.069-44.811 99.89-99.882 99.89-55.070 0-99.881-44.821-99.881-99.88 0-55.062 44.811-99.891 99.881-99.891z" />
<glyph unicode="&#xe601;" d="M319.621 295.011h-21.289c-3.906 0-7.070-3.157-7.070-7.071v-21.256c0-3.92 3.164-7.091 7.070-7.091h21.289c3.906 0 7.033 3.171 7.033 7.091v21.256c0 3.914-3.127 7.071-7.033 7.071zM312.539 224.177c0-31.318-25.391-56.695-56.734-56.695-31.302 0-56.642 25.377-56.642 56.695 0 4.895 0.69 9.634 1.862 14.16h-16.068v-77.966c0-3.866 3.216-7.045 7.123-7.045h127.542c3.906 0 7.033 3.179 7.033 7.045v77.966h-16.016c1.172-4.526 1.9-9.266 1.9-14.16zM255.805 188.744c19.584 0 35.457 15.846 35.457 35.433 0 19.558-15.873 35.416-35.457 35.416-19.531 0-35.405-15.858-35.405-35.416 0-19.587 15.873-35.433 35.405-35.433zM256 424c-110.446 0-200.007-89.56-200.007-200.007 0-110.433 89.561-199.993 200.007-199.993 110.458 0 200.007 89.56 200.007 199.993 0.001 110.473-89.548 200.007-200.007 200.007zM347.943 153.326c0-11.744-9.518-21.276-21.289-21.276h-141.698c-11.719 0-21.251 9.532-21.251 21.276v141.685c0 11.739 9.532 21.258 21.251 21.258h141.698c11.771 0 21.289-9.519 21.289-21.258v-141.685z" />
<glyph unicode="&#xe602;" d="M256 424c-110.444 0-200.004-89.553-200.004-200.003s89.56-199.997 200.004-199.997c110.458 0 200.004 89.546 200.004 199.997 0 110.47-89.546 200.003-200.004 200.003zM307.706 224.029l-32.787-0.032-0.025-119.996h-44.975v119.996h-30.001v41.349l30.001 0.033-0.039 24.341c0 33.751 9.141 54.28 48.88 54.28h33.101v-41.375h-20.703c-15.482 0-16.238-5.775-16.238-16.558l-0.052-20.688h37.215l-4.377-41.35z" />
</font></defs></svg>