<?xml version="1.0" encoding="utf-8"?>
<!-- Generator: Adobe Illustrator 16.0.0, SVG Export Plug-In . SVG Version: 6.00 Build 0)  -->
<!DOCTYPE svg PUBLIC "-//W3C//DTD SVG 1.1//EN" "http://www.w3.org/Graphics/SVG/1.1/DTD/svg11.dtd">
<svg version="1.1" id="Layer_1" xmlns="http://www.w3.org/2000/svg" xmlns:xlink="http://www.w3.org/1999/xlink" x="0px" y="0px"
	 width="64px" height="64px" viewBox="0 0 64 64" enable-background="new 0 0 64 64" xml:space="preserve">
<g>
	<path fill="none" stroke="#FFFFFF" stroke-width="5" stroke-linejoin="bevel" d="M5.092,16.819h53.816"/>
	<path fill="none" stroke="#FFFFFF" stroke-width="5" stroke-linejoin="bevel" d="M5.197,31.909h53.817"/>
	<path fill="none" stroke="#FFFFFF" stroke-width="5" stroke-linejoin="bevel" d="M5.092,46.957h53.816"/>
</g>
</svg>
